<define-tag pagetitle>DSA-4870-1 pygments</define-tag>
<define-tag report_date>2021-3-12</define-tag>
<define-tag secrefs>CVE-2021-20270</define-tag>
<define-tag packages>pygments</define-tag>
<define-tag isvulnerable>yes</define-tag>
<define-tag fixed>yes</define-tag>
<define-tag fixed-section>no</define-tag>

#use wml::debian::security



</dl>
