<define-tag pagetitle>DSA-4941-1 linux</define-tag>
<define-tag report_date>2021-7-20</define-tag>
<define-tag secrefs>CVE-2020-36311 CVE-2021-3609 CVE-2021-33909 CVE-2021-34693</define-tag>
<define-tag packages>linux</define-tag>
<define-tag isvulnerable>yes</define-tag>
<define-tag fixed>yes</define-tag>
<define-tag fixed-section>no</define-tag>

#use wml::debian::security



</dl>
