<define-tag pagetitle>DSA-4843-1 linux</define-tag>
<define-tag report_date>2021-2-01</define-tag>
<define-tag secrefs>CVE-2020-27815 CVE-2020-27825 CVE-2020-27830 CVE-2020-28374 CVE-2020-29568 CVE-2020-29569 CVE-2020-29660 CVE-2020-29661 CVE-2020-36158 CVE-2021-3347 CVE-2021-20177 Bug#970736 Bug#972345 Bug#977048 Bug#977615</define-tag>
<define-tag packages>linux</define-tag>
<define-tag isvulnerable>yes</define-tag>
<define-tag fixed>yes</define-tag>
<define-tag fixed-section>no</define-tag>

#use wml::debian::security



</dl>
