<define-tag pagetitle>DSA-4668-1 openjdk-8</define-tag>
<define-tag report_date>2020-4-28</define-tag>
<define-tag secrefs>CVE-2020-2754 CVE-2020-2755 CVE-2020-2756 CVE-2020-2757 CVE-2020-2773 CVE-2020-2781 CVE-2020-2800 CVE-2020-2803 CVE-2020-2805</define-tag>
<define-tag packages>openjdk-8</define-tag>
<define-tag isvulnerable>yes</define-tag>
<define-tag fixed>yes</define-tag>
<define-tag fixed-section>no</define-tag>

#use wml::debian::security



</dl>
