<define-tag pagetitle>DSA-4644-1 tor</define-tag>
<define-tag report_date>2020-3-20</define-tag>
<define-tag secrefs>CVE-2020-10592</define-tag>
<define-tag packages>tor</define-tag>
<define-tag isvulnerable>yes</define-tag>
<define-tag fixed>yes</define-tag>
<define-tag fixed-section>no</define-tag>

#use wml::debian::security



</dl>
