<define-tag pagetitle>DLA-2624-1 libpano13</define-tag>
<define-tag report_date>2021-04-13</define-tag>
<define-tag secrefs>CVE-2021-20307 Bug#985249</define-tag>
<define-tag packages>libpano13</define-tag>
<define-tag isvulnerable>yes</define-tag>
<define-tag fixed>yes</define-tag>
<define-tag fixed-section>no</define-tag>

#use wml::debian::security

