<define-tag pagetitle>DLA-0015-1 linux-2.6</define-tag>
<define-tag report_date>2014-7-12</define-tag>
<define-tag secrefs>CVE-2013-4387 CVE-2013-4470 CVE-2014-0203 CVE-2014-2678 CVE-2014-3122 CVE-2014-3144 CVE-2014-3917 CVE-2014-4652 CVE-2014-4699 CVE-2015-3145 CVE-2014-4656 CVE-2014-4667</define-tag>
<define-tag packages>linux-2.6</define-tag>
<define-tag isvulnerable>yes</define-tag>
<define-tag fixed>yes</define-tag>
<define-tag fixed-section>no</define-tag>

#use wml::debian::security

