<define-tag pagetitle>DLA-899-1 feh</define-tag>
<define-tag report_date>2017-4-17</define-tag>
<define-tag secrefs>CVE-2017-7875 Bug#860367</define-tag>
<define-tag packages>feh</define-tag>
<define-tag isvulnerable>yes</define-tag>
<define-tag fixed>yes</define-tag>
<define-tag fixed-section>no</define-tag>

#use wml::debian::security

