<define-tag pagetitle>DLA-1096-1 wordpress-shibboleth</define-tag>
<define-tag report_date>2017-9-13</define-tag>
<define-tag secrefs>CVE-2017-14313 Bug##874416</define-tag>
<define-tag packages>wordpress-shibboleth</define-tag>
<define-tag isvulnerable>yes</define-tag>
<define-tag fixed>yes</define-tag>
<define-tag fixed-section>no</define-tag>

#use wml::debian::security

