<define-tag pagetitle>DLA-2170-1 firefox-esr</define-tag>
<define-tag report_date>2020-04-08</define-tag>
<define-tag secrefs>CVE-2020-6819 CVE-2020-6820 CVE-2020-6821 CVE-2020-6822 CVE-2020-6825</define-tag>
<define-tag packages>firefox-esr</define-tag>
<define-tag isvulnerable>yes</define-tag>
<define-tag fixed>yes</define-tag>
<define-tag fixed-section>no</define-tag>

#use wml::debian::security

