<define-tag pagetitle>DLA-2360-1 thunderbird</define-tag>
<define-tag report_date>2020-08-31</define-tag>
<define-tag secrefs>CVE-2020-15664 CVE-2020-15669</define-tag>
<define-tag packages>thunderbird</define-tag>
<define-tag isvulnerable>yes</define-tag>
<define-tag fixed>yes</define-tag>
<define-tag fixed-section>no</define-tag>

#use wml::debian::security

