<define-tag pagetitle>DLA-2252-1 ngircd</define-tag>
<define-tag report_date>2020-06-21</define-tag>
<define-tag secrefs>CVE-2020-14148</define-tag>
<define-tag packages>ngircd</define-tag>
<define-tag isvulnerable>yes</define-tag>
<define-tag fixed>yes</define-tag>
<define-tag fixed-section>no</define-tag>

#use wml::debian::security
