<define-tag pagetitle>DLA-2318-1 wpa</define-tag>
<define-tag report_date>2020-08-09</define-tag>
<define-tag secrefs>CVE-2019-10064 CVE-2020-12695</define-tag>
<define-tag packages>wpa</define-tag>
<define-tag isvulnerable>yes</define-tag>
<define-tag fixed>yes</define-tag>
<define-tag fixed-section>no</define-tag>

#use wml::debian::security

