<define-tag pagetitle>DLA-2491-1 openexr</define-tag>
<define-tag report_date>2020-12-13</define-tag>
<define-tag secrefs>CVE-2020-16588 CVE-2020-16589</define-tag>
<define-tag packages>openexr</define-tag>
<define-tag isvulnerable>yes</define-tag>
<define-tag fixed>yes</define-tag>
<define-tag fixed-section>no</define-tag>

#use wml::debian::security
