<define-tag pagetitle>DLA-1376-1 firefox-esr</define-tag>
<define-tag report_date>2018-5-11</define-tag>
<define-tag secrefs>CVE-2018-5150 CVE-2018-5154 CVE-2018-5155 CVE-2018-5157 CVE-2018-5158 CVE-2018-5159 CVE-2018-5168 CVE-2018-5178 CVE-2018-5183</define-tag>
<define-tag packages>firefox-esr</define-tag>
<define-tag isvulnerable>yes</define-tag>
<define-tag fixed>yes</define-tag>
<define-tag fixed-section>no</define-tag>

#use wml::debian::security

