<define-tag pagetitle>DLA-1279-1 clamav</define-tag>
<define-tag report_date>2018-2-12</define-tag>
<define-tag secrefs>CVE-2017-6419 CVE-2017-11423</define-tag>
<define-tag packages>clamav</define-tag>
<define-tag isvulnerable>yes</define-tag>
<define-tag fixed>yes</define-tag>
<define-tag fixed-section>no</define-tag>

#use wml::debian::security

