<define-tag pagetitle>DLA-1604-1 lxml</define-tag>
<define-tag report_date>2018-12-10</define-tag>
<define-tag secrefs>CVE-2018-19787</define-tag>
<define-tag packages>lxml</define-tag>
<define-tag isvulnerable>yes</define-tag>
<define-tag fixed>yes</define-tag>
<define-tag fixed-section>no</define-tag>

#use wml::debian::security

