<define-tag pagetitle>DSA-4397-1 ldb</define-tag>
<define-tag report_date>2019-2-28</define-tag>
<define-tag secrefs>CVE-2019-3824</define-tag>
<define-tag packages>ldb</define-tag>
<define-tag isvulnerable>yes</define-tag>
<define-tag fixed>yes</define-tag>
<define-tag fixed-section>no</define-tag>

#use wml::debian::security



</dl>
