<define-tag pagetitle>DSA-4462-1 dbus</define-tag>
<define-tag report_date>2019-6-13</define-tag>
<define-tag secrefs>CVE-2019-12749 Bug#930375</define-tag>
<define-tag packages>dbus</define-tag>
<define-tag isvulnerable>yes</define-tag>
<define-tag fixed>yes</define-tag>
<define-tag fixed-section>no</define-tag>

#use wml::debian::security



</dl>
