<define-tag pagetitle>DLA-2017-2 asterisk</define-tag>
<define-tag report_date>2019-12-01</define-tag>
<define-tag secrefs></define-tag>
<define-tag packages>asterisk</define-tag>
<define-tag isvulnerable>yes</define-tag>
<define-tag fixed>yes</define-tag>
<define-tag fixed-section>no</define-tag>

#use wml::debian::security

