<define-tag pagetitle>DLA-2045-1 tightvnc</define-tag>
<define-tag report_date>2019-12-21</define-tag>
<define-tag secrefs>CVE-2014-6053 CVE-2018-7225 CVE-2019-8287 CVE-2018-20021 CVE-2018-20022 CVE-2019-15678 CVE-2019-15679 CVE-2019-15680 CVE-2019-15681 Bug#945364</define-tag>
<define-tag packages>tightvnc</define-tag>
<define-tag isvulnerable>yes</define-tag>
<define-tag fixed>yes</define-tag>
<define-tag fixed-section>no</define-tag>

#use wml::debian::security

