-=-=-=-=-=-=-=-=-=-=-=-=-=-=-=-=-=-=-=-=-=-=-=-=-=-=-=-=-=-=-=-=-=-=-=
Count      Debian UID		 Key Fingerprint(s)
-=-=-=-=-=-=-=-=-=-=-=-=-=-=-=-=-=-=-=-=-=-=-=-=-=-=-=-=-=-=-=-=-=-=-=
    1           93sam		AC656D79E36232CF77BBB0E87C3B797088C7C1F7
    2          aaronl		00FD5113166C6D5C055056C81D62E9C9376DCEC7
    3             aba		E820094883974FDC3CD00EC699D399A1EC36A185
    4             abi		75D8908EBD35E31D94D102EF10557B83807CAC25
    5          absurd		1CCFF5B3A16607D3FF6E2212CC254778F28CD102
                     		23443C4E360141B9ACE7587283D8D90D
    6             abz		DD417D06D7106B89C7AE44A5CEF563662B555AEE
    7            acid		9A0D5FD9EB4222F68974C95CA462B51EC2FEE5CD
    8         acornet		EA7DC27F2742024DFB1E8293B24F9D802225848E
    9            adam		17A411F75E7EC2E708AA38B005D08BF72C6D110A
   10           adamm		B7DF3C4162808B749627DA84EF7FDB35D6806145
   11        adconrad		C8B2CB3E322549BB5ED20002BE3CED47C6CEA0C9
   12         adejong		198DA17E5B2523BF88B6F7D45586A7DF9F8D08A7
   13        adeodato		7F9AD2ADCD3737FD60FD0A114F1A998EDA6AE621
   14             adn		E751A687D8EE4EC30922C4A5394DC5910ED704EA
   15           adric		551F6AC7D8AE875ACAD9099DF7D3BD00
                     		765B5E58293012080CA53FD582B10CCABF02C766
   16             ads		7EF8BA8B79FDC748C2DC1767701CB2A3DA602822
   17            adsb		745CE3403D37831312F3A98FA24704D5345E3A85
   18             aeb		72E5703144142EB6F6B44CBD1181703204880A44
   19        afayolle		A9F7C81F531A6D888F81203A2E5FDBE0DF67A55E
   20           afrb2		24D62C0AE3D38478F27C69FD131EC4C4
   21              ag		2FC3907C20D963EBB234D023236C60C665B4B162
   22             agi		978204E72B75405CF5E90C81C514AF8E4BA401C3
-=-=-=-=-=-=-=-=-=-=-=-=-=-=-=-=-=-=-=-=-=-=-=-=-=-=-=-=-=-=-=-=-=-=-=
Count      Debian UID		 Key Fingerprint(s)
-=-=-=-=-=-=-=-=-=-=-=-=-=-=-=-=-=-=-=-=-=-=-=-=-=-=-=-=-=-=-=-=-=-=-=
   23        agmartin		01E721217DAFB63CA00A039C58C670084597A593
   24           agney		4B6DC72F824DCF3B75AE64790FDF48D659B957AE
   25             agx		FBDF66F84CAC5E588EC477E49FCF2CCD3F3E6426
   26              ah		7451CC902F5601DBD4D678F572043670BDE5F1EE
   27            ahs3		1C778E9F923F843174A72CE5B28EBE4FBA98E15D
   28        aigarius		0E9781D69B8816F286F572CE3330A21567209BDE
   29             ajk		7579786D41105F4A4D4436911EC237D9534584E8
   30        ajkessel		74B762CBDF618DD9CD3A84357537F7664950EAA6
   31         ajmitch		1149DCAB4F2F17C6C458DC7F82091D9A5921B5D8
   32            ajpg		A906708C30548F27FB1A28EC5534D50037E36242
                     		F8742DE87FE1F7AC8E8358424426F1DA
   33             ajt		C135F6A86D8F7D25F040E7B43B17BC742A4E3EAA
   34           akira		29B3FBBA1299C6B6AE39DB39216E6336
                     		2A0DD68A657843B60C72C59B5F3931A6E213F1A0
   35          akumar		CFCD193DE96D1CE927CE51AB49DEF96B0B5AB4E7
   36         akumria		272DC6FA14A408B719C2C9B1BFEE2BD4
   37           alain		CF0B10589F1D97102CAD3F858CEEB259B3C281F4
   38            alee		D4199C0239C6A5AFBE2E97AA464DE301B74952A9
   39         alerios		12DAD00150FDB751A32CED19A1BCBB2F306CDFF3
   40            alex		3A3ECA3B63E3B1AB24F31BC435FECD3FEB380BE6
                     		887F247F57419ACD45DABC6ABE06FCB4
   41       alexander		7BC3013F8489FADC424A07B9141138DDA3E45D66
   42           alexp		8B325F49B8A5F2039A837E9CF9CA01D5E26A6F28
   43           alexu		1369930E55262BB3C3BB22030FEE55B546399138
-=-=-=-=-=-=-=-=-=-=-=-=-=-=-=-=-=-=-=-=-=-=-=-=-=-=-=-=-=-=-=-=-=-=-=
Count      Debian UID		 Key Fingerprint(s)
-=-=-=-=-=-=-=-=-=-=-=-=-=-=-=-=-=-=-=-=-=-=-=-=-=-=-=-=-=-=-=-=-=-=-=
   44           alfie		73DA0A6E57808A7BECD771A810BB80FC16BD77C6
   45            alfs		8E4E3469FA3D36586135BAAAED6BEE2D1C74E0B7
   46        algernon		47395463F9F1F67185313429478EDE14C3B2FCDE
   47        amacater		E920DF31A4839188C6595806C7D8D012
                     		F3FA275213277904846DC0DE3233C127E93ADE7B
   48           amaya		395DE808BEADD7215E8220513450ED513FCC2A90
   49        ametzler		BCF71345BE42B5B81A57EE091D339C658B8D7663
   50             amu		22EC231CA6DD5453145125DDA1630C8F74E0B766
   51             ana		17A2BDBAA42140727A1536069F78F83CE8C43461
   52        anderson		0791D3B89A4C2CDCA31FBD030A62E53437A79149
   53          andete		819BE2FDBEF75799B72F81DBD3FAF6FB7CFC94DD
   54         andreas		ADEE56831C993257F41DA3F2F20FAC0B7B8357E5
   55          andree		226D697EFF42A4AC7317C40688BBD7DDBD88CDAC
   56        andrelop		A0C1A28E76270AAB1A57D2385B8FE2F59D1B82F6
   57        andressh		E61C08A9EBC812E4F363E359EDACBE0B3A48C934
   58         andrewl		CF9DDD269E27C9E9A5E5F4A2D08DFB32
   59           anfra		0AA569FFC71C7BD6D1B576C8672C8B09
                     		5C8CEBFC806DAA3C2B6BC0BF05048A9B631B4819
   60        angdraug		902B5C62E28D59F0F860C39AC61A895E85EE3E0E
   61          anibal		FFB087FFAA67B0BCB97D62048A9067791880283C
   62        apeeters		EFD432E05C0B10950669743D032570844D2313D5
   63             aph		E21E5D13FAD42A54F1AA5A00D801CE55
   64        apollock		1ECE6A35AF34BC655F65B34121B9575CA7D91602
   65          appaji		5B6BF223B76963E9E2CB0A3FE1EBBEA51D389887
-=-=-=-=-=-=-=-=-=-=-=-=-=-=-=-=-=-=-=-=-=-=-=-=-=-=-=-=-=-=-=-=-=-=-=
Count      Debian UID		 Key Fingerprint(s)
-=-=-=-=-=-=-=-=-=-=-=-=-=-=-=-=-=-=-=-=-=-=-=-=-=-=-=-=-=-=-=-=-=-=-=
   66             apw		BB1838728F40B7E63BFCD67AE52707E90485EFCD
   67         aquette		137107DF3CF391607905144BDB6414CA204DDF1B
   68              ar		1E12FE3CC99BD0FA28AF131634E622A62FA9A38C
   69         arafune		AAF3B93EF2F05D426F4A2F60354A245D
                     		DE5024DCC7B9EA4B2F2454FF35F61A470F5F1676
   70            ardo		3B1F2172005C3A737F72DFD9907847F9
   71             ari		54A266A77609C480A58E06B6C0EFAEE3B70E403B
   72           arjan		B9829452CAE00CFAFBF4D1635002EFB1962E3890
   73           arnau		D792B8A5A567B001C3422613BDF2A2205E3619D3
   74         aroldan		0EE927C955F192E43809B852D8E0724BB29396EB
   75          arthur		79F70C5F444870E35F7D0B33360A6CCA44A0FCB8
   76            asac		4215EA5BBDDA4DD48A7AA125BFCA4B38A824B93F
   77          ashley		126B5806F0B7BD77387C72C194F164D8F38BCF9C
   78         atterer		08A97B7D3D133EF23D25D15779E6F6DC888354F7
   79            aure		207081CA9835B9A389B1AAF3875EF23315E92319
   80         aurel32		4B7D218817B6F67C582DCFB0C376A8DAF1BCDB73
   81           avdyk		82F345D0F1B2D79ED0BE5188E2FCC566EEB6B4C2
   82             awm		CCA377BD77494424B0DB674F8C90347F8F068012
   83       awoodland		3AF29301D73387C5468D4DADD45356D4B0DDAF42
   84              az		DACF8509A3CAA24DC5FEA588A72FF66C42BD645D
   85        azekulic		478256371D9494F816C1D8331D9D6173
   86             bab		925CCE050B76EBBC96375FE731036EC736B861C1
   87          bahner		076531CE6223B28C1A644F7A99727C1454ECB8AF
   88        ballombe		4940AE28C5F8E8A35E4D8D287833ECF1B5444815
-=-=-=-=-=-=-=-=-=-=-=-=-=-=-=-=-=-=-=-=-=-=-=-=-=-=-=-=-=-=-=-=-=-=-=
Count      Debian UID		 Key Fingerprint(s)
-=-=-=-=-=-=-=-=-=-=-=-=-=-=-=-=-=-=-=-=-=-=-=-=-=-=-=-=-=-=-=-=-=-=-=
   89             bam		99187E12ABAF54EA9C9E27A5B828A71C00530C24
                     		A03864DEAE44B503A8577B0D12497882
   90            bame		C83EDA064DA5138578C7B9598DD404FF7ED87D57
   91             bap		3755EE8A783F3493A8FF2C8F2F3E069EFEC23FB2
   92           baran		DDBE8A2373481CA7FC9156CC8F3B66A6FC494FC4
   93            bart		2FADE3A21EDE3C1708CA57594E92687B666D21A9
   94           bartm		1C9E693C6BBC5E4340ACCBA36CC69AC26868F41F
   95          baruch		F9ED8708BE1AF04829275FBD1C26ABEAAB474598
   96             bas		C1F5F24CD5143FEC8BF6A2B12BAEE41F0644FAB7
   97           bates		755EB641BD4030726DF8B7A44EE3DE7D
                     		9D7C9FA296C8483CC142912884A844F6FE61E079
   98           bayle		65D7B7CA2B95916F71BE26144F1E0907AEBCE71F
   99        bcollins		A80600A0547D7A4FBD978D557DFBD52D
                     		CA9C9B60D31FB7FEB093CDA17CD73F641E04EC2D
  100         bcwhite		8112D4D78EB7AEC8186AA086D10C0668
  101           bdale		1B822F5FFCE3FCCF902C21E5E8BF6A7B
                     		A18EEFA7E2E3B02A4168875D64A7C0A7F2CF01A8
  102       bdefreese		6F1F40039E09BD7A8099C5F3E48B65B54B394F7E
  103          behanw		6DE006ED5430A503940ED685BAC78EE5DBA50595
  104          bencer		93AEA3727846B14E0DB38B65589A903470EB0FCE
  105          bengen		6619634A0F5DB23F6A5FFB6D5028272F3FD29468
  106            benh		3FA545F103049F9AAE902F84EFD64D0912066207
  107        benjamin		D77D6312932FA19CF9CDB8517AFF4B3AC34AA484
  108           berin		D4E908BDA1A408F07C3BB22F17FDABE8609CD2C0
-=-=-=-=-=-=-=-=-=-=-=-=-=-=-=-=-=-=-=-=-=-=-=-=-=-=-=-=-=-=-=-=-=-=-=
Count      Debian UID		 Key Fingerprint(s)
-=-=-=-=-=-=-=-=-=-=-=-=-=-=-=-=-=-=-=-=-=-=-=-=-=-=-=-=-=-=-=-=-=-=-=
  109          bernat		5854AF2B65B20E962161E32B285BD7A1F22A794E
  110          bertol		92720B065DB1A9EEF89001FD3E7434397DD9018D
  111        bfulgham		0AE3D7F45120575591A144BCCC60DDAF37EF5295
                     		599F8D6DE84D10E58B7B03A49A8D8E81
  112            bg66		A8B90F6902FD86E7D339C9A6FA96A148004DA6B4
  113         bgoglin		23F194455C8CB97C983FE504461F3C17C3DC59FA
  114           biebl		20168F789AC39CA7A9CDEDC787B3C447BD058554
  115           bigon		1827E04D04E58F431D4DE88976478107233B9EA0
  116         bigpaul		69A5548C414511168CA92CB594483FA354DB33D3
  117           bilbo		434943E24AD3E43552ED884CD8CD3C3BD944DF87
  118          bkerin		9CABE11763F6B38B20B63DF553929D83E3A0213C
  119           blade		E6EB98E2B8858FF06C045C1DE106481EEDF008C5
  120         blarson		D5D098AFB14363734F4178618351C3C268AC5746
  121         bnelson		317A2DF561C615F073CF9D6C5DC61A9259DA6AF2
  122             bod		87EA44D150D89615E39A3FEEF0DC8E00B28C5995
  123         bossekr		5202EA4B6946AE85149A9BB0376941AB835EB2FF
  124         bottoms		13CCC3217D8D5A6D96E612DE382E255B
                     		3D16272FA73AF5B1F91B5D8C9306C9BCDAF1054C
  125            brad		E114EC83721B6D205D7E16B04BFDBDA66045FB1E
  126       bradsmith		D20172742FE1A92AC45CEFAB8F70629AC718D347
  127         branden		1573D54473C3988F00963E4FEA4C661F2B46A27C
                     		9A8D5E8C561487649C74E52924605C92
  128         brandon		D6378D8E36432008C18FA418DDBA93BB3637491C
  129          brianb		0A67CCD38E9630496ACAE0C76452DBBB119785C2
-=-=-=-=-=-=-=-=-=-=-=-=-=-=-=-=-=-=-=-=-=-=-=-=-=-=-=-=-=-=-=-=-=-=-=
Count      Debian UID		 Key Fingerprint(s)
-=-=-=-=-=-=-=-=-=-=-=-=-=-=-=-=-=-=-=-=-=-=-=-=-=-=-=-=-=-=-=-=-=-=-=
  130          brianr		578A87BDBE6D8A04DF7A6EB30D46FE7CD21DF495
                     		890B6837D9748D8E01DA726D86D32A7A
  131        bridgett		F8661B0D21F75A715B8FBA809011F62E
  132         brinkmd		141198894E27D44F7084F098C0A4CBB987978569
                     		1CD2E8813FBE4E9440BE4824FA15EF34
  133          brlink		E6E2824DB81C3689659F6B684EB016BCAA6541EE
  134         broonie		4189E4231C09700E89119CAF276568D75C6153AD
                     		78D2FA87C772E319674C7F2F9E0DFD64
  135           bruce		381884D27E1148DA423C05E196DD9D1AF4495B34
  136           bruno		E8E0D40EF88CF4B094C7E3577FEDAEA72D85E5BA
  137              bs		BB0B047F5D4E3A1F0F4E8519B78EAAF7
                     		D930653A114193BFB8F6163E20D6688259EF5DBC
  138             btb		79982CB0635F170ADFE9643DB5E01C5DE678D1A1
                     		C1F405AD05F80FF7E6810EA068E6FFA8
  139         bubulle		F972A168A2703B34CC23E09FD4E5EDACC0143D2D
  140         bureado		7C1081B53C566C78AC7D3A2D51602C8D005C3B82
  141            bzed		06C8C9A2EAADE37E5B2CBE93067AAD04C93BFF79
  142           cajus		672319F7F7E1EBAF268E1343B7289B27FED8F826
  143          calvin		A97746CDF7094611A44D27FA781C250432EC6F3E
  144            camm		8DBF595D15C8FA93BF273E81CA633848
                     		F1B068F9933AAC362A30A7957331B5C057F045DC
  145        camrdale		FF0784FEE439DA85CAF1EA950F1F76E20D2036AD
  146        capriott		7D9BD9F6F21953332D1DC4F9E283C86878398A01
  147           carey		5A98FF2242DC75277ADE7A58252CC4C873D446C2
                     		81F540DFA0490665A3A9DE6F9C5C9224
-=-=-=-=-=-=-=-=-=-=-=-=-=-=-=-=-=-=-=-=-=-=-=-=-=-=-=-=-=-=-=-=-=-=-=
Count      Debian UID		 Key Fingerprint(s)
-=-=-=-=-=-=-=-=-=-=-=-=-=-=-=-=-=-=-=-=-=-=-=-=-=-=-=-=-=-=-=-=-=-=-=
  148             cas		96747EE24AC6F5EF3C5752C3EC326810CD5626F0
                     		A2E7F4AB22D6A9734CCC1891060F6230
  149            cate		B7A728128390BBB21AC66F9EF9935424B1DF9A57
  150           cavok		3A0F2F80F79C678A89364FEE06779033A20EBC50
  151             cbf		15EE951E72969D56A20B89C2F328AA54
  152         ccheney		2D31192787D71F249FF91BC5D1065AB38E384AF2
  153     ccontavalli		23837B144D0853A42C1ACA299E9854311A686975
  154            cech		0163FBB25BF0E1C8E530944CD152FFDAD06A8654
                     		C75B671E7511703843BE6B9AC09C3318
  155          cedric		995F58995A9D3DED9D473DD56E69973CF7E8BC63
  156           cesco		2443238D801AD7917420C42AF8B97FD3
  157        cespedes		8574F8F3947725F5B339896D7A95A5B988784703
                     		EEB9E07B57596E4912CF8D171C17ECB3
  158            cfry		9DAC6903E8579CF8AF72FD6D86200551AA79B91A
  159             cgb		C7F61E9C32910EADCB8E55987806CD6F133108EA
                     		C87DDCC103600294CE353EE56C85108C
  160              ch		0AA3E8791D82F59E77A40096911F4AE686A118E6
  161          chaton		4837EC640A95001FC10A5E0DC250CB593B76AE3A
  162          chewie		B4ABD6279CBD687E7A3119500CC70B18206C5AFD
  163           chris		B21E11956AF510EAF606F74BD06B7BC8
  164          chrisb		34FF1EDE56F0779468B13FCB0F340577D097A261
  165          chrish		BE3D5AF7470A183F0E518C339A8DBEF268396FD2
  166          chrism		7CCAB8ACD7D25A9B35B55B11767E4E17
                     		911B1763C60865377DF4018081E56287B5CE5497
-=-=-=-=-=-=-=-=-=-=-=-=-=-=-=-=-=-=-=-=-=-=-=-=-=-=-=-=-=-=-=-=-=-=-=
Count      Debian UID		 Key Fingerprint(s)
-=-=-=-=-=-=-=-=-=-=-=-=-=-=-=-=-=-=-=-=-=-=-=-=-=-=-=-=-=-=-=-=-=-=-=
  167       christine		FAFB4E42053A8EDB918E765F77BDD7B9521381BA
  168        chrisvdb		E79467F1B907425355D9067E7ECDAD406C0084FC
  169        chrsmrtn		6C4486ED6D66999F4CCAB79C53E8165BEBEDB32B
  170        cilibrar		D6738BC6BDC15043C21A684136E10F4BE0CFA8E4
  171        cjwatson		87317259431038049C92C139F6DD330210FA4CD1
  172           cklin		B5963B24A9B200B55CDB636CAAAEC012DD0F6268
  173        clameter		88462A803BAE94ED94BA98DCD29BBFFC442E63C2
                     		FB9B3121041E3A33C7622FC0CD81CAB5
  174        claviola		3BE16591C78C2AA431DDAEEF640602273516D372
  175         clebars		F844B9926FE133FE02B2FC1EF7B257749AACBFB8
  176           clown		4B50F1E3080C21A291F48BF0CD603B5A2ECF984B
  177             cmb		C3267C307B6DFBF86BA89107462E80ACB7D86E0F
  178             cmc		FA59358BA580CA386695714FCEB14A7A1DDC990D
  179            cmot		EFE396F418F58D65849428FC1438516892082481
  180        codehelp		4CD46644C10548EDCA28EC368801094A28BCB3E3
  181          colint		188E8DA35D18B6913848325C8F638F961B3045CE
  182            cord		767C80485684A391A1576818EF653E8D5AF4C462
  183          corsac		DE262FC47097FFC6DE2CD8C04D44C020C5C05BAE
  184         costela		8AE6CDFF6535192FB5B659212262D36F7ADF9466
  185           coven		DAB7FE98AB30F098723F419FDA182B3B
                     		DB0DF889C81596F203DF0C5104E76310EFC18770
  186          cowboy		684A1F8DC9BBE0DFF3168C9F015427E3A4B47676
                     		9D3583BC28718C0A058A89E773710686
  187             cph		424626C56C4AA9DB11194C07E3AA82D81B352C01
-=-=-=-=-=-=-=-=-=-=-=-=-=-=-=-=-=-=-=-=-=-=-=-=-=-=-=-=-=-=-=-=-=-=-=
Count      Debian UID		 Key Fingerprint(s)
-=-=-=-=-=-=-=-=-=-=-=-=-=-=-=-=-=-=-=-=-=-=-=-=-=-=-=-=-=-=-=-=-=-=-=
  188           craig		742498929FD4835F3ACB7A0B18742D12
  189          csmall		1C1BD89314182AF445EE95CBC76CE5AC12CADFA5
                     		AD8DD8636EBFC3C74741B1A21F46EC90
  190         csurchi		D1E29A9D17120E948671834E0CFF30E126257B68
  191             cts		20F49C926AA6C046F2B05F0885672E5DDDA51280
                     		D405D8D15690DE697D1814606C29A610
  192           cupis		716E40B5BEBE5B231C7E17F6233B8A57E4875FF9
  193           cwryu		5F6EC41CE863A6C519953A5B01B47334E0D49E99
  194             cyb		5E045B0EA831824D9E5F58716754891DEAAC62DF
  195         daenzer		B09FAF35BE914521980951145A81AF8E6ADBB200
  196             daf		3798CF214178565EFDE7480BA43E6D27128287E8
  197           daigo		17C558FC44F27E08DDF13BBC35C3E3FAE91CD250
  198          dajobe		F879F0DEDA780198DD08DC6443EC92504F71955A
  199           damog		6EF6C284C95D78F60B78FFD3981C5FD7C671257D
  200             dan		4F55A3BFE7077FDA460E3A8F6E038F5EE0A38377
                     		BD2DD12CD3E3980BA9921228D6580834
  201          dancer		183A70FC47321B8757A5CE82D8377D4EE81E55C1
  202         danchev		1AE77C660A265BFFDF225D551C570C890E4BD0AB
  203          daniel		709F54E4ECF3195623326AE3F82E5CC04B2B2B9E
  204         danlutz		DBE9BFF8907BBED4680A7DA03384782D14E06AAF
  205           dannf		AAA1D9EA42E099A339B36D7686E00D0C19A42D19
  206             dap		F36251F76D5185EBAF6875B9D29B1AFCF90FFFE5
  207            dave		AF618DF1F53766B509C07E8EED72B738
                     		B030A2BC56A866CFA492E49B29E14F99391B3928
-=-=-=-=-=-=-=-=-=-=-=-=-=-=-=-=-=-=-=-=-=-=-=-=-=-=-=-=-=-=-=-=-=-=-=
Count      Debian UID		 Key Fingerprint(s)
-=-=-=-=-=-=-=-=-=-=-=-=-=-=-=-=-=-=-=-=-=-=-=-=-=-=-=-=-=-=-=-=-=-=-=
  208           david		910B9712D9DFC8F5F9FE152D73686F78
  209          davidc		A3602018526B3DFF52BEE5AAB0F7E8C60FCC27C6
  210          davidw		A6CE8C8EBC005A7BCC66E43B0152D603DFEAC4B9
  211        dbharris		CC53F12435C07BC258FE7A3C157DDFD959DDCB9F
  212         dbugger		88B0EDC1A0E7CFD31FC10E3195382444
                     		F3A12880BCF7F8047C39B29E292A35920034C733
  213        dburrows		07FB533591FD5ACC4CBC5DBF721EB1B0CEE44978
  214         debacle		6F7432AB53DD09F13B69E63F798A7053
                     		E93E504310EF5D5F5D64E1EBFB13343857E3E888
  215         decklin		55782B782151EEB381717DE6B8824687F1968D1B
  216            deek		7102808A7733C2F3097B161B9222DAB89840105A
  217        delaunay		08BA6695BF3358B0935624DCAE77E041B9D56A91
                     		CC12255A7BAA318BAAAE5DDE3F9841C1
  218          dennis		FBA0E513AA28DDFF4D707084D7F14E63DD1C62D6
  219             des		1E0849A352646367675AD4897D08E5236EB95A6F
  220           devin		13E7199EDD1E65F089052E435395CA0DE9ABFCD2
  221          dexter		24810A76D3A3B74133C42498BDF2CB8A
                     		56B4B786A62D3EA134CF264C84C1C77BC0B10A5B
  222           dfrey		51F35923114FC8647D05FF173C61EFDE
                     		87F94D550265BC47246C6F2F295CAA946CE5FB54
  223        dilinger		5D4272A835DA48D030B0392B3A65F019CFD42F26
  224            dima		38841253CD2BCA0BB3432E9F35FC9EEA97AA33D6
                     		8030A37F998913E5F1CDE4C562D3399C
  225          dirson		42384696F272C9882A01DB8A575B95B25C33C1B8
-=-=-=-=-=-=-=-=-=-=-=-=-=-=-=-=-=-=-=-=-=-=-=-=-=-=-=-=-=-=-=-=-=-=-=
Count      Debian UID		 Key Fingerprint(s)
-=-=-=-=-=-=-=-=-=-=-=-=-=-=-=-=-=-=-=-=-=-=-=-=-=-=-=-=-=-=-=-=-=-=-=
  226           djpig		EFFDC2C90B84664F14B3096E41B9F4E85B713DF0
  227             dld		80207789B47B57372928B38C94A22D3E
                     		831C5DFB46318360F5FD2856D696FEEBB9EB150F
  228           dlehn		F52701E6467CAC15EDC9F9273C8408581A3B48DE
  229         dmartin		6D77976A392AEE47CA4331D3A3F5DC7342000462
                     		BBAC36BF95EEAC85FD290C08E197B95A
  230             dmn		616696FDD049CB91E8B2736A1EA8E5AA9725F63B
  231        dnusinow		F2E1D6829607241FE54C12A8C8B7E935D63469DF
  232            doko		2DA00A3E65263CACE706175A4AD9516B0F932C9C
                     		C17CC7DEDD4CC2469CB84BB6620981AD
  233             dom		117644DFC579B6DD3E710CB5633B85285178E2A5
  234             don		45AD1B8A9474319A4F7F649881C08922808D0FD0
  235          doogie		67014293CA37FB1E63C9801D08CF840A
                     		AD46C888F587F8A3A6DA32618A2C7DC28BD4A489
  236           dopey		F42F871071C27603A56F16184FDEC6E7E160649A
  237        dparsons		A110EAE1D7D280765FE0EC0AB6CE704164124E4A
  238        dreamind		A681868486470C5D79B9A59D8B9D310A97C398CB
  239            drew		BEF2BE0A250ADEBBC13BF24FA3B8229DA57D8BF7
  240              ds		FA7A9BC2BD8D28849324203BDAF24CAFD6D549AA
  241        dsilvers		961F4EB829D7D304A77477822BC8401620687895
  242            duck		6ADD5093AC6D1072C9129000B1CCD97290267086
  243           duncf		5A806FE537E55FD7E452F53EAA3533346BE69CD0
  244          dvdeug		7EA549F6A9D22FD221A92CAC35A27AB72E54EFC6
  245           dwarf		818B26573D76B958BE9148F51A9C4B8EF4984AE0
-=-=-=-=-=-=-=-=-=-=-=-=-=-=-=-=-=-=-=-=-=-=-=-=-=-=-=-=-=-=-=-=-=-=-=
Count      Debian UID		 Key Fingerprint(s)
-=-=-=-=-=-=-=-=-=-=-=-=-=-=-=-=-=-=-=-=-=-=-=-=-=-=-=-=-=-=-=-=-=-=-=
  246         dwatson		5FDBB1BE9B31D3A8298172850DE8799EA7D6AE79
  247         dwhedon		AF692818DE528C096C2845B9493D66FBA8EFD603
  248              dz		3CEDBDC64F23BEDAF4892445147F1AEA2DB65596
  249             dzu		DCE8E482770CF727D4B374BAB4C1D581629081AC
  250             ean		3C127A74CF2396E9763B9317A38EAEFD
  251           ecain		B0A0BF1E10145493C6FC38FA166257EC104B7390
  252              ed		E959DBA0092A7AD23F41500E7649D1C5B4A4E070
                     		F31184A456A05926BD6D367BF9AAB1B0
  253             edd		344C9EC6707AFA176FE260B1099491F791B0D3B7
                     		B24975BF442CB7AA50CB197D80F7CBDC
  254        edelhard		DD2937062B8D22A8DEA2C302941C86926F222F1F
  255         edmonds		73FE5760EBEA331FC39F83E7769FBF4873014091
  256          edward		26B3E24434237F38C93A73E699C890751BC4E32B
                     		868BF7CAD7CCAC44CC94A78FEAAFD50F
  257          eevans		CEC86BB4A0BA9D0F90397CAEF8358FA2F2833C93
  258          eichin		3B6297D0E736BF2D9B0B4AD6B7680DD8
  259            eike		753636FE62768F94785D2042C3F8A3A26A8333C6
  260            ejad		E272A6DD21A6DFC8C045146EAF16EDB1BB9B8711
  261             elf		476DF13A2450FEB041C9AE94D04D8217
                     		E39685B176DB94BE4CE9A40F57E8CE072EAE5D2D
  262          elonen		F041D6BB96B6BAE3FF9264D35FCAF9022EDFE670
  263            eloy		AC3A464ADF876468F63DCCB2F8D31F49DEB0EC31
  264         elphick		92C839E7280E36313F0E1EC056647A2FA54310EA
  265             ema		DEE850F81C5AF8208DD629D30BA0EE03EAF19B60
-=-=-=-=-=-=-=-=-=-=-=-=-=-=-=-=-=-=-=-=-=-=-=-=-=-=-=-=-=-=-=-=-=-=-=
Count      Debian UID		 Key Fingerprint(s)
-=-=-=-=-=-=-=-=-=-=-=-=-=-=-=-=-=-=-=-=-=-=-=-=-=-=-=-=-=-=-=-=-=-=-=
  266           emfox		7E74053E142DB9CC313111B8F8C41B2CF7142EC2
  267        emschwar		FAA6D8592F0BAED7C3329F7AEBAD6E5CBAC59E39
  268           ender		48C4D999F69A4615AF5F28535ACFC4840D62001B
  269          enrico		66B4DFB68CB24EBBD8650BC4F4B4B0CC797EBFAB
  270        eppesuig		43AAF8E27A0E57F4DC7FFD022207C594EC97089D
  271            eric		097C4861993427A08E1C2B0A61E98ECF16D970C6
  272           erich		6073C8748488BCDAA6A9B7619ED078EF4B3A135C
  273          ericvb		F1B25DDA39291D3F58AF6C26E152EE59B09E8530
  274            erik		1C6E77A082DA2EDBD1B125B498C99E8BDB898410
  275           eriks		0DAFEEA41C0CFD21111B5C3FC007DEBB30825345
  276           erinn		8738A680B84B3031A630F2DB416F061063FEE659
  277            etbe		D51E60CA98996009F1A4B4CDC2B079FCF5C75256
  278           etobi		26C0976C594BE3C7A5A392DDF7180D26AEDAA642
  279           eugen		DCB911B6BEDF8F3C089B9E6429A0BAFB39A8CCE2
  280            evan		A9EBB297CD4424F81CF269A850AA7015A876F581
  281             evo		E5D870FFBB267D90D52C56B5347A7D93176015ED
  282         ezanard		D9E760760E20C5CAA70F4CEEC647DE37
                     		EA74DB17A180C7D0F9D5997CF96EBA6DCF4C7754
  283           fabbe		A74A703C8FC9198EB12DD83DEFA55436964199E2
  284        fabbione		3EEECE2D3F83E4D423551223842CDB7A44779E18
  285          fabien		1CC14FA6EEE54D994F802D2D1F85C170
                     		C15DFE9EBB35F596127FBF7D8F1FDFC9BCE09436
  286            fabo		CEE06509A9D42D28D2573EA88CF535F66AA572F7
  287            falk		6AA2ABD3C802094EF1FF283BD386DEE262EEAD8B
                     		E0D624243F377DAE4CE0F0353AD25A80
-=-=-=-=-=-=-=-=-=-=-=-=-=-=-=-=-=-=-=-=-=-=-=-=-=-=-=-=-=-=-=-=-=-=-=
Count      Debian UID		 Key Fingerprint(s)
-=-=-=-=-=-=-=-=-=-=-=-=-=-=-=-=-=-=-=-=-=-=-=-=-=-=-=-=-=-=-=-=-=-=-=
  288             faw		C2E3EBF1F6E8092F55269A970A300ED090E5CA46
  289           fenio		42B8C61FF6EACE10BCBAFAE9850BA2DE13FEFC40
  290             fer		8610BDC9C84E5AF09AF0415C8536D24D
  291              fh		DD61743404FB8ABD435483380C82EFB1
                     		F9AB00C13E3A8125DD3FDF1CDF79A374B4071A65
  292          filipe		BDC59E6BC8E3B139DAF07E6998A15B3EA6BA423E
  293         filippo		22D52C906D6677F159F10030001CDE6A6B79D401
  294          fizbin		9663F12CEB510F73B26F22CFDDFC845B
                     		A655FDD9AE06205025A91832249F50C649202B37
  295             fjp		ED6F9504FD4E539A8279616B826FCAC21E880A84
  296         flatmax		D0052FB975BE7827B4516D76C6CCD1330501F882
  297          flight		8C03B557EC1CDD5905C1F3FE6CF6F41A
                     		ADA5562B638D552F4BB82A27DDE55F0DFDB91B8D
  298          flimsy		96B05A4725393FEDC181A3A3726C2995383F25B5
  299             flo		86079AD8227425A11AF9B4D151ACF6AD75BE8097
  300         florian		34F879978BC103F09C43F3D7B3753E4D514B3E7C
  301             fmw		6FFC6751BBB80F60C39DAB724A77581CB34A0F1D
  302             fog		697807F613F7E0A359D1FF95BDC0A0AE06468DEB
                     		DE9EB275B4F6CC5BC3D5715104ABF3B2
  303            foka		223D627084DB3BDBE72358A9F1A6E0EE
                     		E5A68A91A15FE9A1241473DE2DAF2A666D67F790
  304        formorer		CC992DDDD39E75B0B0AAB25CD35BBC99BC7D020A
  305        fourmond		1EBA24A7DAAE662C6FF34B37C7F521C122B282CA
  306         fpeters		19FA1B4E7036EF6BD24CD2DAA7E19C57
                     		62BF2EDA404A6EB4F5BEA1E2A11DCBB16783ED5E
-=-=-=-=-=-=-=-=-=-=-=-=-=-=-=-=-=-=-=-=-=-=-=-=-=-=-=-=-=-=-=-=-=-=-=
Count      Debian UID		 Key Fingerprint(s)
-=-=-=-=-=-=-=-=-=-=-=-=-=-=-=-=-=-=-=-=-=-=-=-=-=-=-=-=-=-=-=-=-=-=-=
  307        francois		5A039C126D136E7329D8480149C5192819D03486
  308           frank		25C0E61BDC474BA7204E62F5FB1B3D632252FA1A
  309         frankie		92E42D44336FDF91550823D5A4535199E9F2C747
  310           freee		0AA4EABAF45D81DF35E90F9771A9C91A57159E59
  311            frob		1FFBF62CFFAB43DDDC81F6AEDAF7350A7EBBD625
                     		3F62CE84C8D6D542019079CF3EC8FD65
  312              fs		E4E44DEECDA10D901DD99DA4EA7ED2A341954920
  313             fst		976E747F499C458015CBC0BF7EDE8735DC426429
  314           fuddl		1B954398F362AD2DC5E6718BBAB12CF0C7C58F7C
  315            fuji		2687634B07281FAD6DAAB58AD6030FBF
                     		D4024AF37488165BCC3441477F0CD922EE4C26E8
  316              fw		C8D3D9CFFA9E70563F32FA54BF7BFF0402D524BE
  317           gadek		D625919B1D79004D8D49C94D25792A876ACBD306
  318         garabik		9AF5D8B0862D2224400768DF501409C6A0FE58B8
  319  gareuselesinge		60D04388E3853643807B9507EE491C3E0123F2F2
  320         gaudenz		2BD7F89663E13E3A5820C015DC5A28E48C7740AF
  321             gcs		A7ADD22D796EA275C7C9D1033036AD8EA51A4FDD
  322          geiger		D73EEDEC8D5CBE955D9BC6AAD696CA8660B6B958
  323         gemorin		9973E623833D3A5140D34C85778AAE5B578CB542
  324             ghe		498639DAD152050B46999A7166DB5A3626F020F7
  325          gildor		ECF0A05DA5D040B582BB8A2C8ABD9BA1FB0DFE9B
  326         giskard		7961298678142F4C15D2191282F0707088D224B6
  327           gismo		E6A193BC8B82004B167C4D388D3867D89DDB992B
  328        glandium		A479A824265CB2A5FC548D1EDE4BDA2C54FD2A58
-=-=-=-=-=-=-=-=-=-=-=-=-=-=-=-=-=-=-=-=-=-=-=-=-=-=-=-=-=-=-=-=-=-=-=
Count      Debian UID		 Key Fingerprint(s)
-=-=-=-=-=-=-=-=-=-=-=-=-=-=-=-=-=-=-=-=-=-=-=-=-=-=-=-=-=-=-=-=-=-=-=
  329          glaweh		B733A61DFE90985905ED4B218233A6D22D2F75EF
  330        gleydson		BC8103B7B2891227A02E675AA56BC3DF985BA281
  331          gniibe		75479757262628A19D753E98041E39AF71D5F43A
  332         godisch		D363691F1C4E70D71B9E07DE84E64AA009FC015C
  333         goedson		20FCAD60E8C8D2EB064A8F5BEED8D4CC1DEB8EAE
  334          goneri		D3BC65BB48B11DA8BC8A5C88B0A4C5A437D9412C
  335           gopal		C26E6FE0922ABA3281BE063CB62BD228
                     		F6D98D9DCE0E1C04E5EA70FC47D9DD61465B85FF
  336           gotom		44A9EDF44076706A22B761A0A88A9AB0864826C3
  337        gpastore		C9FE1962298AEA68EDD2D8C718953F2C73B02592
  338         grantma		8C2535E1A11DF3EA5EA19125BA4E790E2EE20270
  339          gregoa		741460055C35D4A18DC9C2103B32989D00F3CFE4
  340          greuff		01FA29EF7F5666A86596C50143225D698FC03128
  341            grin		8AF70C62FB01667548E7FBA4A7143B706592813D
  342           grisu		3CAB9397E835E2E95289A0C0F85EBF46258D8781
  343              gt		B408508F30E1F79E60E8AB58DA6D25DF32D75812
  344         guillem		6AAA6732BBA3157CB1522E71B96F5C899D928C9B
  345             gus		24D6980A17E05B155DED1F1D83FFC87BD02F8773
  346          guterm		E7C65AA9EA49291F7781577F3606C51455BFD024
  347            guus		F18823A1E6E6759102CD850E0312E8C35D8CDA7B
  348             gwj		6C53370CD34A586E35660F883BFEB0E2
  349           gwolf		0C79D2D12C4E9CE45973F800D80EF35A8BB527AF
  350            haas		9B26F48E6F2B0A3F7E33E6B7095E77C579CC6586
  351           hafre		35B392FDD5CE230D0F36B0E98B3CC11D204D1441
-=-=-=-=-=-=-=-=-=-=-=-=-=-=-=-=-=-=-=-=-=-=-=-=-=-=-=-=-=-=-=-=-=-=-=
Count      Debian UID		 Key Fingerprint(s)
-=-=-=-=-=-=-=-=-=-=-=-=-=-=-=-=-=-=-=-=-=-=-=-=-=-=-=-=-=-=-=-=-=-=-=
  352           hakan		5F760FDECF30A6206A6F82DD01BB5D753DE37DC0
                     		E981FD90535CE93E3DED57151B7E29F3
  353          hallon		8036A4564D3901C14FA6E9126BC9A7B2
                     		DC6C12B4698D0D907C54380ED115D067AA5FD7AC
  354           halls		BE88B4B38D1F6639580FCCEE7B199D131997E7CF
  355          hamish		79D417AFF510BE814C308BCDDF45A8055D07E95C
  356        hartmans		39272F04C8E560DC056CE2F3FC8D76733C86260F
  357          hattas		9C0712D92B0C8978C547B98BB72D2AB365B328C6
  358           hauva		3BB22FBA5B01E0E2FE2AD5437468630C182FFF06
  359        hazelsct		D54D1AEEB11CCE9BA02BC5DD526F01E8564EE4B6
  360              he		0C2CE3E83489599A75EF115698EE733A9DE1EEB1
  361          hecker		C3CF4178B8AD5871DD100B17CC1332317C796B7D
  362          hector		E1BA871DA5EA78F3FCBDBA5B330B038B6C63746D
  363           helen		B7938AC2CC488357C29939C2DDE35CF15653C9C4
  364         henning		12C24D5809950EEFCBC91E88F8DAD7195CBC1773
  365           henry		639D8843F0579F99FF8BCC6383EEA934
                     		A5D36EF88FB2F7DBCAB817B7382B600D7D935D81
  366         hertzog		1E41DEA91452CD33AC67D570506B2442
                     		7D2E678DC54F79E8C02DDE9ABCF6C60F6E8169D2
  367        hilliard		4C2D57C2A015DFAB25FC41C49FE361E9390D6559
                     		7C2A175CA53365BA8FB611D4374DFDDC
  368             hmh		54225C61F6B706FB7E043738EE25DE3F1CDB0FE3
  369          holger		480E51BAFB08CB4175CC91B15072D036AC583520
  370        holmgren		CD0AE4537C92D81065061B7093B991367D61E3E6
-=-=-=-=-=-=-=-=-=-=-=-=-=-=-=-=-=-=-=-=-=-=-=-=-=-=-=-=-=-=-=-=-=-=-=
Count      Debian UID		 Key Fingerprint(s)
-=-=-=-=-=-=-=-=-=-=-=-=-=-=-=-=-=-=-=-=-=-=-=-=-=-=-=-=-=-=-=-=-=-=-=
  371           honey		057F5FF9577DA76DCC2168E7306C483AFF1F7A5C
  372           horms		B2F9C5E313771B0DC8B0F6B503C0023E05410E97
  373              hp		07591C29F64CC8DDE5D5CEE1668A1BC8
  374          hsteoh		20AD5478A0BC68434A0508A4060C4E63B071C40A
  375           huber		61F06138BE7BFEBFA223E9D1BFE120656B21489A
  376             hug		5C2A86741E3976BAD91F203A69937E9B27FCEB27
  377          huggie		021A833AD2A1015C00103BC9310765FBDF5CE2B4
  378            ianw		446ECB19D158C53D263691D058395253F829E9E7
  379           igloo		C3ED6F9C2E5B4CFA6030E409EB7CBAA680C83E8E
                     		CDB3F9532F14A500D06EBB32B219E039
  380          ijones		414EAC7008BC7BC4836E7CA604B3D367B2B831A2
  381             iko		2123906893F464530847785D1144E4ADA7228C38
                     		8F0B1098595DA5528A85C8474BB985FF
  382             iml		5F7A7539EA0DF4B495D30D22A8BBB3661D1DFB53
  383        imurdock		51060059B8586CB395F2AA5364BFACAE
                     		8E3D54B84446D5E316FF6D6BCB1D75A5
  384            ingo		B2A37622D32A0D1CCE3F3DF2E17AD7B5090DD8D5
  385           isaac		ED6FE2EFE0793C8CFB0D06384044F61854E672DE
  386        ishikawa		A7DBB59A4268DDF2276035947E2F30EEECA94FA8
                     		ACFAFA80278D505E5F9FB47894BC61B5
  387            ivan		68CB5B3A48FC18F17D79A94681872F9B54C1C1C9
  388             iwj		5906F687BD03ACAD0D8E602EFCF37657
  389             jab		D5D39EFC140AB9FF953572D76B37E8DD34B36856
  390           jaime		51C915494C030E7F2150F1F0111E3AA0BFBCC985
-=-=-=-=-=-=-=-=-=-=-=-=-=-=-=-=-=-=-=-=-=-=-=-=-=-=-=-=-=-=-=-=-=-=-=
Count      Debian UID		 Key Fingerprint(s)
-=-=-=-=-=-=-=-=-=-=-=-=-=-=-=-=-=-=-=-=-=-=-=-=-=-=-=-=-=-=-=-=-=-=-=
  391             jak		D9D9754A4BBA2E7D0A0AC024AC2A5FFE00823EC2
  392         jaldhar		48DFD0003BE71FF8D9C15832DA460E47EE6DC66A
                     		B6B3D275DF8DD68704957A7D4D6F9FB3
  393        jalvarez		3660BC4AB81D3472B1FFF0ADC8C71A9539BB323D
  394        jamessan		FB46A48FF8D28AEA1F9A9F490DBDD4A661326D40
  395         jamuraa		87F192C444AA4105B1C4EDECD9959620C00E9159
  396             jan		3641E48643825A1340E7EB439C851C72F12DA065
  397             jaq		F2296392EC63C9A7F5B0E809E6EF68372CFD1C38
  398          jaqque		D8C64C2CE88EE5CF873716C4ADE94F6507799E74
  399           jason		5028E73900DC3E7BDE6C6ED6EDC63044925288BE
  400        jaybonci		562B35DCBE8D7802DB31642364D8790FE0B8B2DE
  401         jbailey		DCAF16D5BB56B970A8F9EC88E4CE6199D0980A99
  402       jbelmonte		784F4E389A576829378B105BE4D7E0EA4C40410A
  403        jbernard		D966CBDB8E2975D02B1F1633C004F6035912C27E
  404         jblache		935A79F1C8B33521FD627CC7CD614FD7F5D65169
  405          jbouse		C745FA3527B432A691B33935D573D5B129AB4CDD
  406        jcristau		671B2A4AF9C697CE1F7D8861984BD380AC5F700C
  407         jdassen		CC8FDD82CB19DDD31FCC52EB03E1C1D917BA45CE
                     		DD603260F7906480E76FD4E4F8C94A58
  408             jdg		96711FD81FCA6831282D6F7A0D4E7DC3FDB4E459
  409             jeb		3F2CF8FDB2D5AA35C81AF914A5F270280917A9E4
  410             jef		39E33D31CC8F089C7528464FE37882C881764A2D
  411           jello		9D7F8A3DFA99E32B66374BF350B69C9F398B371D
  412          jenner		4F032C3CACA0C02D9BB218E3D203CCA5FDA6B6A9
-=-=-=-=-=-=-=-=-=-=-=-=-=-=-=-=-=-=-=-=-=-=-=-=-=-=-=-=-=-=-=-=-=-=-=
Count      Debian UID		 Key Fingerprint(s)
-=-=-=-=-=-=-=-=-=-=-=-=-=-=-=-=-=-=-=-=-=-=-=-=-=-=-=-=-=-=-=-=-=-=-=
  413          jeroen		D9E45378D0F9E4B20622D299976B884B0813569F
  414          jerome		8680DDD58D91D7A6923FE4D1DC913D985DF03167
  415           jewel		325A3DD1F8D5E51C5D1D83725EB9E72A228A3AE4
  416             jfs		86AADB04D2F5CC553A4D940FB1A9DD82DC814B09
                     		D691BB89887AF7A0BAE427FD7A6AFEDA
  417             jgb		62811BD865C6AFB944BBA275377165C5870AE0C9
  418             jgg		64BE1319CCF6D393BF87FF9358A6D4EE
  419        jgoerzen		8C9BEC79F11F0A73627F2AB5DCF785B48A1D9A1F
                     		DDF770ED1B8CF7147693609E4A4D5270
  420              jh		03F39777FE54A8F65545EBFBCA07E61412AA1DB8
  421         jhasler		F3620B8844F8FD30027A71E5A3026F9A
  422         jhirche		3C4D08BDE22F1DEDEDA3251B1D3C025FE7DFC3B7
  423             jim		7E9684B1E82957F06F0626421B6A4317FF692BCB
                     		97F1822FC4A234A44B09DF82967D7A3C
  424           jimmy		0D4C40C184AFA56AF548DE1CEAE3DC35F0D7D44A
  425          jlines		FEAB4E3C601690D40D26D67AA930D253
  426         jluebbe		1B25F91F9E7B5D4F128202D68A838BE4D8480F2E
  427         jmarler		117CA421C8602B900F089EB1F51ADC15
  428         jmintha		A2546A1C9D9D1677A0A1EE8314B43D42
  429             jmm		CA4FD469C047165A1A55CCD75E6DEF1C4E2ECA5A
  430         jmunsin		9F699D9680DD8ED0D8A03066F95563B4
                     		B271AE7F7338F15720A8C128EDF3E0A82A9D33FE
  431          jochen		61A90CB8CE09966D0741880BD1F857D18FE8733D
  432             joe		66E324429A1AD550E068EC7A747B25FBC1AA4696
-=-=-=-=-=-=-=-=-=-=-=-=-=-=-=-=-=-=-=-=-=-=-=-=-=-=-=-=-=-=-=-=-=-=-=
Count      Debian UID		 Key Fingerprint(s)
-=-=-=-=-=-=-=-=-=-=-=-=-=-=-=-=-=-=-=-=-=-=-=-=-=-=-=-=-=-=-=-=-=-=-=
  433            joel		9F4BD7806EF45700778D8B220064F9FFBB845E97
  434           joerg		DF7DEB2FDB28FD2BA9FBFA6D715ED6A07E7B8AC9
  435       joergland		79C07671AFC7315E657AF31857A37FBD51CF8417
  436            joey		B53FE57BD0C1F689FCE256235B9AA5F8801EA932
                     		E4387384DE720D39F7A8CAFD85B04AEB
  437           joeyh		80C4A4087B2666099976E143DADA79CD788A3F4C
  438             jon		B8F572F14CC831F9013F7B1E8E62E7F764011A8B
  439           jonny		1D73BCEECB69E3834E36ACADC18AFB9F2E039402
  440         joostvb		8FC6A40E31B87E0E2270D7A906069CF2969457F0
  441         jordens		F01946CCF910B59289E8D6341D28E4BFE02FEF11
  442           jordi		73ED4244FD43588620AC2644258494BA917A225E
  443           josem		B5644BBB97419F11A461719D39A237CB2809E61A
  444           joshk		3F3787880D85019456F741CBA3882EBF78446F26
  445          joshua		FF72ED412864A8B9D27B70FEB092ADC1213EED76
  446            joss		8C62F78F73041328C670C347AD295AE1D75F8533
  447         joussen		7A10EB66D499C62996CD88C2307B5229D2A6B810
  448             joy		29B6F1DD777F3DB7C267F20D0B5447A2200D1596
  449             jps		DD6A05B0174EBFB2D4D9B52E0EE5978AFE63E8A1
  450              jr		DB46412671F5DB18F789F73D6AEBD35661014F99
  451        jredrejo		4491BB79CD5AD94A66814B0C9AA551D966A90DE2
  452             jrv		F0374FFDE57EC5E6F1A01E226F46DA0C
  453              js		9A98C6EBC0989ED03085ECA99FB0DB32C02440B8
  454             jsa		87FCDA315F00C8850DC3E28FBD0D4B33A997BA7A
  455           jsogo		B06B023FEAA637DC1E62B0794BE0582590788E11
-=-=-=-=-=-=-=-=-=-=-=-=-=-=-=-=-=-=-=-=-=-=-=-=-=-=-=-=-=-=-=-=-=-=-=
Count      Debian UID		 Key Fingerprint(s)
-=-=-=-=-=-=-=-=-=-=-=-=-=-=-=-=-=-=-=-=-=-=-=-=-=-=-=-=-=-=-=-=-=-=-=
  456             jsw		8FEFE900783CF175827C2F65D14219877A786561
  457         jtarrio		453CBE8C8DF8B5E27B382D4F2578F87E149CDDB2
  458          juanma		FCA1A9FEC037B51928CF9FC2E361D392B0AA8450
  459           jules		E83139361CE66C9C0D69CA25F7AE40FA
  460           jurij		7F2D53CD4470EC43B966EBFF8E379CB4C99E03CC
  461           jwest		DC49E87E76DD302D8DF1B4D8A3604C04
  462             jwl		5A396B7A45E222ED538A18DB59C469671CA69CBF
                     		D84037FA05A7947B3F0FCBA078CDAD55
  463            kabi		A99883E38A9F878DB83685EB204785A6
  464           kalfa		0DBD8FCC4F6B8D418F4363A1E43B153CCB467E27
  465        kaminski		06DBCDD576EAE1783806EB1CC5D6A00EC008CFC3
  466           kamop		514775388A606A34DC3EB4D863153C9042955682
  467            kaol		348DE846F4789BC17FBDD2B079897DE7DDC0B70D
  468           kapil		F160CBB903C8425D4BBA79F4491F8FDA5416E5B8
  469          kaplan		C644D0B392F48FE44662B5411558944599E81DA0
  470           karlb		2C1D962605F9CE4B1EB06BF07CC114CB9C6D5E59
  471          kartik		190A8C7607743E3130603836A1183F8ED1028C8D
  472        kawamura		674083340E4141C192AEB34CF17FAE1B
                     		80DEB259E6FD33EF92423048E4E3A0E30E189538
  473             kay		A73547ECD87B1F15C1E953D3AA036173A723E391
  474         kcoyner		DA924DA5045B1D72AACFE33CA8F71E548CE11941
  475             kcr		198F5EAE4F00F3D1E9A7BC50B1CA92E8A7D86B95
  476            kees		9FA3C49C23C9D1BC2E3019751FFF4BA917063E6D
  477          keithp		3B31C0AD093B6CCD3C6381CE429F015B096C4DD3
-=-=-=-=-=-=-=-=-=-=-=-=-=-=-=-=-=-=-=-=-=-=-=-=-=-=-=-=-=-=-=-=-=-=-=
Count      Debian UID		 Key Fingerprint(s)
-=-=-=-=-=-=-=-=-=-=-=-=-=-=-=-=-=-=-=-=-=-=-=-=-=-=-=-=-=-=-=-=-=-=-=
  478         kelbert		058963931BFCABEDBEB2091E640E642E2F2F0CDE
  479          keving		917A0D1F6785C0872A134C1310FAAB980EA84A2B
  480          khalid		1FEA0251FD47DBF5A4062BE7950118DBA895B621
  481           khkim		7DB291A3CA1BE7078065B873F36D89424DB97694
  482            kibi		33B18B87928138D4E7AE88FF7867D53C747935DD
  483          kilian		75FFFC9F717B526296A20609BDD933B785FEC17F
  484          killer		D7F53417338270A8870EC9D792E60A8B5F6D8015
  485        kirfrank		E091D3B58D5CA94683C789A5F145CC5E20BEF5C4
  486            kirk		3EF37672C33B5DAB6A1FA53032857C29385A3EC1
                     		4180704066846978566DCB9D9146B753
  487          kitame		22AE4F7CEF95A4BEA367ED5A53E5995B5155330A
                     		25292BC3977187794086AAB94A98DDD2
  488             kju		9D50042EFF89954364AF01CF509880E3F6A10C2D
  489              kk		C5B5A07AE404AB2CC77C9A9EA62C5187C6D981CF
  490        klindsay		B81E58A3B49A580EEE3D8CF0519A55F0746C51F4
  491        kmccarty		5AFC19141A2FC6322A85AE9B7D8C40224F83C751
  492             kmr		D7A055B647683582B10D3F0C112ECDF2C4A3823E
  493           kmuto		360BB87969575D6FEED3D98640A5BEED72D03CB1
                     		A6822D4B913C41FB8D96100D1293CFD4
  494            knok		BDD723BBB7241FA21BB32EC02BA82602C2CE8099
  495           koala		9094AFE0AF11C0DC41D2FB47019410C17D0041C7
  496          kobold		54656E69E5596466BF3D9F012BF8EE2B7F961564
  497          kobras		6665725C400A7EE071500F60A4E2880389BF7E2B
  498           kohda		3AAAE18DDBB4C8D056173880D485DD2F5BFA90EC
-=-=-=-=-=-=-=-=-=-=-=-=-=-=-=-=-=-=-=-=-=-=-=-=-=-=-=-=-=-=-=-=-=-=-=
Count      Debian UID		 Key Fingerprint(s)
-=-=-=-=-=-=-=-=-=-=-=-=-=-=-=-=-=-=-=-=-=-=-=-=-=-=-=-=-=-=-=-=-=-=-=
  499         koptein		04E2D9E3E8E34CDC3C63E7A7BC25672755AFDE69
  500             kov		9AE55601A23412FF423FA999D200EB30A0FB5DA6
  501           kraai		6F0E1FA1F92FF96EDE2E56C97CD760631557BC10
  502           krala		97A41066E5643748977593C33298C70DE5FFEDE1
  503          kraxel		030DE29B74F727E7FBCE1896017CA3229628B502
  504         kreckel		96D40549E44DA739FDAAF2A55D8EE50CF0199162
  505        krisrose		A4D35BD73EC57CA2924ED21D126BB8E0
  506         kroeckx		71D72EF4798F8E3A8B5AB11441DC1C907244970B
  507          kubota		44049F8603EDC85D71A26BACC4948F979C520480
  508            kyle		331A9468C04D3A765C56BA687EB792DF191FCD8A
  509           lamby		0F1E5C1F1D3DF7DBAEE04288E7FF2E5B634F9A20
  510          lamont		8A46ADB3FC4B4B24DF1728BACCDFE49B0A0AC927
                     		91FD12DC3217F841025C2247FCBF0EDE
  511           lange		AEA6A8C1BD8E67C48EF68BCADC13E54EAB9B66FD
  512            lars		21267EC66F64D65479D697671FBB95BF2D9ACC8E
  513        lawrencc		CAC6254513564ED7507019B3DB040A13A3D7B9BC
                     		E03578D751941AF7E8DB870637193963
  514         lbrenta		23499FA0AE0DE2BA9E18560DC7D930259DFFAAD4
  515         ldrolez		754210E3866279DB1123D352B1195000FD46A698
  516            lear		51E706A74C4849684E9BBCF6834137C6
                     		58CB606525E6D1AAD079B01055DB529EEA184ECD
  517           leist		63490CA7D9728AA050A620FEB14BCEFE316DC8FB
  518          lepied		72DB97D67ECED2FA79F2E387BDBBDFAF
  519        leutloff		62EDA651FE8D2F2ED5A98C79DC74DD71
                     		D31AC8CD972BFD76CB77AF222D57E1F315E50D6C
-=-=-=-=-=-=-=-=-=-=-=-=-=-=-=-=-=-=-=-=-=-=-=-=-=-=-=-=-=-=-=-=-=-=-=
Count      Debian UID		 Key Fingerprint(s)
-=-=-=-=-=-=-=-=-=-=-=-=-=-=-=-=-=-=-=-=-=-=-=-=-=-=-=-=-=-=-=-=-=-=-=
  520             lex		92EC2B07F305069641CC0B20C5768B45D8E53013
  521        lfilipoz		A14997BD188C7F29779E09C1357332C45A827A2D
  522         lfousse		D743B1583C04D940A78E8C4246801517A1696D2B
  523         licquia		053BAD5D77324F4B896FD30F556EBD97
                     		1DA0F1B5FAC435E895C76E28600A553FF666C91D
  524        lightsey		FA48D2AF2802F1824D5828230587B26E45F3FBF9
  525           liiwi		C4402EA201E79D54E6EA61DE24C5CFE4F5521541
  526         lingnau		BEC17427C712715E8AAB9ACC72AE7DDC
                     		DC51277EF94DDFFFE156CD85B5022EB582EA653E
  527          lintux		D604F94B5A4C45E84E8465187985979AE3304051
  528          ljlane		732368015D7002442ECE3563C490643655D3A1E9
                     		FD3BD76C63DFEF8A9EF8C8E7E14788E5
  529         lmamane		9DAD31313ADAF50BD096002AB1C473173E7B4B73
  530          lmoore		4C3FE9264D89A8AF99B71D53345863ABDAA47511
                     		D6C1348354AF0E12153C6E3AF345D9D1
  531          lohner		72076C7376397FBEEDE66EA8E9B0C69E268462E3
  532            loic		24F2720EC693FEA0A564F8DEF1D2CCC8497A176D
  533         lolando		F5566852EB92BD779CF137190EA756B5144843F5
  534            lool		B3B5F6CDBB5E586B80C15A74E15517F22B0920C0
  535            lowe		4B5E4958FED9BD0B5A03CBF7F0F5A3CB
                     		AB3D9DD76996335B6B56A67A55194C1A627F7BDE
  536             lss		6F2F4639270698F30D051C25FB2F6B93
                     		D9D536B79BB5139F62A6C717CCEC38F5A3679C16
  537             ltd		C8E0BC7969BE7899AA0FEB16F84BFE5A
-=-=-=-=-=-=-=-=-=-=-=-=-=-=-=-=-=-=-=-=-=-=-=-=-=-=-=-=-=-=-=-=-=-=-=
Count      Debian UID		 Key Fingerprint(s)
-=-=-=-=-=-=-=-=-=-=-=-=-=-=-=-=-=-=-=-=-=-=-=-=-=-=-=-=-=-=-=-=-=-=-=
  538            luca		F1F1C8B92A3ED0518E4F5B0CCAACFF1429F07FE6
  539           lucab		74785B728B8AB530C60BF30346AA1B6A3BFB9FB3
  540           lucas		075D010B80C3AC68BD4FB328DA196237023B3F4F
  541         luciano		53D732109C90AAB211D805034164D1B3894BB479
  542         luferbu		03A4DD601E2F16638077EF8EE08601C766E68993
  543           luigi		12F89C0389D3DB4A9972C24AF19BA618924C0C26
  544             luk		D5AF25FB316B53BB08E7F999E544DE079B7C328D
  545           lukas		40795396CF075E27575B1FBBABE4859B7F9DA3B2
  546           lunar		04A90837F747F0FC205C5646D8F523B3D7D0EF65
  547           lupus		DD76657E111EF814F47A902168241DEF
  548           lwall		5D25528A83AB489B356A4087BC9B473384FB46D6
  549              ma		7DDF975E73435ACD725E62159A6027DB1A944AD7
  550           macan		A86984E25C04A1ED5919B3DA2A221461
                     		B87DF0605071DDA04D29CF74A144B27BEB9CDAD5
  551            mace		7345F2F751F07700FEB7FE2087D5E190EBC73D63
  552        madcoder		72B4C59ADA78D70E055C129EBC6AFB5BA1EE761C
  553         madduck		ACF49D3E1E1D5EE2B2035E53220BC883330C4A75
  554         madhack		7FC70DC0EF31DF837313FE2B77A8F36A3B047084
  555         madkiss		6D2D424D824C81DA7D6F1ED41CFA3E8CD7145E30
  556         maehara		6A2E6A5438F1D1D815136CDF27122D42A674A359
                     		82372F1E06EDC4371EE2C29622B8B3F1
  557         makholm		A32897E97EA9BAE5A7195812A1B13F2C2C8B195A
                     		F5B8C25DADF4DFB06064530FFAE65129
  558            mako		E6445A655AF81C0F9DECA73589CD4B21607559E6
-=-=-=-=-=-=-=-=-=-=-=-=-=-=-=-=-=-=-=-=-=-=-=-=-=-=-=-=-=-=-=-=-=-=-=
Count      Debian UID		 Key Fingerprint(s)
-=-=-=-=-=-=-=-=-=-=-=-=-=-=-=-=-=-=-=-=-=-=-=-=-=-=-=-=-=-=-=-=-=-=-=
  559            maks		505CEDE8C8B16E3680AB0201796ECB739B441EA8
  560        malattia		058E0BBC57E7F03479579D3182944F68EA2D2C41
  561            malc		544E6D2ADE653A621AD83FEF1EF86212
                     		C1DBC11EA9DA22FF56A2D26529E57CDBC08C5275
  562           malex		EE63C471ADBA5D80ADFB1054DA286F326C5F196B
  563           manty		3F0A12FC0B55A917D79182D372FDC205F6A32A8E
  564          manuel		802EB746852F21A39239C111F16961C8CC8D7957
  565         mapache		E506FDDEA891E826E7137B4A1E198A792782AF55
  566           marga		CB27020A4D0F68ED63CFF1CC940B94C75B48FFAE
  567        marillat		1D7FC53F80F852C188F4ED0B07DC563D1F41B907
  568           mario		DF3AB6653EEB747A7BDD9B7327D10348DD1B0EF7
  569           marks		70E466E41AF7052F7F2C3B275D3CE77FD54F0847
  570       martignlo		363D3EF3CC922069949C4F116C572D708B143975
  571         masklin		034C94EBDC75E172A34363139418C122B4E24219
  572          maswan		C0BD59FEBBFA2A7E8A41BB3F91374E81825BEF79
  573          matrix		25C32A87055A4275EBB9DFAC3D3E735D83467A34
  574            mats		1624F9A558458C84DB055684EE3A9F0281C2A4AC
  575           mattb		6583A11F1428FCDD65FCC7B5E0CD3CDC59B2D9A0
  576         matthew		509D1C55D1401A27ABCB0304237E8D67
  577        matthieu		A7E1160834622615A974A767E82F467F43A1E308
  578        matthijs		C2E35FF4B4EDC52285B42F3FDA7D51388917A9B0
  579         mattice		050C2D2FA95A25BBB61FCD16EC3BCAC4137A955E
  580             max		078FD05AC7A8CA6E7530E6B1F724DA4D53569524
  581            maxx		30DC1D281D7932F55E673ABB28EEB35A3E8DCCC0
-=-=-=-=-=-=-=-=-=-=-=-=-=-=-=-=-=-=-=-=-=-=-=-=-=-=-=-=-=-=-=-=-=-=-=
Count      Debian UID		 Key Fingerprint(s)
-=-=-=-=-=-=-=-=-=-=-=-=-=-=-=-=-=-=-=-=-=-=-=-=-=-=-=-=-=-=-=-=-=-=-=
  582            maxy		18579A2627F0FA4274127C62227B70B65595074A
  583          mbaker		110D06BC02F6447AD80CA75E2E4F86BA8B0D42F9
                     		C80263AA4983F7ED87D86D017897F4F3
  584          mbanck		67D60A5932836E53F72E9DEE987689619ED101BF
  585             mbr		C1CEDC19B1891712419C39446FA48F011A5A7357
  586           mbuck		74FD81B904BA906F79712714E676B867F8D54259
                     		83E096962A9A1B43F8C86E2DA14EA5EF
  587       mckinstry		CD45260A4546C3C0F595F0F64132BF902A385C57
  588              md		1F2232EEE56FD048EAEFE47F1467F0D8E1EE3FB1
  589             mdj		B282763CE63729B64B024260D722058FC0033D7A
  590         mdorman		525362FF27FBF9BF595A4FF5C9B2C9926D85A41E
  591        mechanix		CAC10932B6B9876840DBC6AA1239F7098E950E00
  592           meder		16202162F42A016F71DCF858BCDBA4DF
  593          meebey		ABE195E150A8DBE7809D3F427127E5ABEEF946C8
  594           meike		7DF61B35A6F99CF29CE14520B93DCA0F1451095B
  595            mejo		AEC0E35EEFCCB17C2164890077A954B3E25F2102
  596         mendoza		9B0B8CFD05F333F786C7B5DB3056F0EF4C2D3EFA
  597        mennucc1		F58548B594504CC6AD853EC3F41FED8E33FC40A4
  598          merker		9C208F6D50870F9BFF3D4FBD7D46C81CFAA95931
  599          meskes		5818BF0C98A32B8382BFD3B4564126F229F19BD1
                     		6C7733CACCD62203ABAB15A3AEAD397D
  600        meyering		D70D9D25AF3837A5909A4683FDD2DEACD333CBA1
  601           mfurr		5B9F587FBC5CD82350CE4DB0ED93CA29124B26F3
  602              mh		5ACFF025912E9F740B3DCDF5448074F5966FBA3C
-=-=-=-=-=-=-=-=-=-=-=-=-=-=-=-=-=-=-=-=-=-=-=-=-=-=-=-=-=-=-=-=-=-=-=
Count      Debian UID		 Key Fingerprint(s)
-=-=-=-=-=-=-=-=-=-=-=-=-=-=-=-=-=-=-=-=-=-=-=-=-=-=-=-=-=-=-=-=-=-=-=
  603          mhatta		6EB39358D8328FE3CDC903A8CB6FA340E7075A54
  604         mhummel		F24DEAC6E3D7372C9122D510EB2401CA0B56B518
  605             mhy		A982F04EABCD834CAED9DFFD3485BA08D0EC0723
  606           micah		892BE46A7E96280B4D9373F4F67E2A5D1CF2D62A
  607           micce		387FA8DBDC2A50E3FE2630C4579329D3C01B2A22
  608         mihtjel		47BB99D01FA91BBF97FE6B9CEE9E2C2487CD3DBD
  609           mikan		76F9E895107312B8A28181445A1E4BDD20E93E8E
  610         miquels		AEE3CFA76134028A2E290DA1E42E41CAFD50FF4F
  611          miriam		AA46F4F2BD5975A4EE4282237DB96D2E36EE0861
  612           misha		A063B99A2BD32D48F2D78E680F274D21948F8F06
  613           mjj29		C265067FAD663296FE1DCC7DA657661D5BE86FB9
  614             mjr		B55E1248ADE6909495BAC7E59946397AE142E6F4
  615           mkoch		BAC54B28D43695E6F2E0BD115923A0082763483B
  616           mlang		7FC1A0854909BCCDBE6C102DDFFC022A6B113E44
  617             mlt		D02D8C0CADBBA69BBF0F6EADB2B05F45D626ABB6
  618        mmagallo		4389F70092A2044E83520EFE7A81833366468D05
  619             mms		D83BFA1F269CFB7B46BD150EE22FD676BE93D2DE
  620         mnencia		FED969C79E6721F57D9552706864730DF095E5E4
  621        mnordstr		737357552CC0B16C4339258FC0A4F11DE06B3F97
  622         moeller		63F62CC39FC36950BD47797FD605DD9CBE9D5339
  623           mones		CFB7C7796BAEE81C3E0571722C045542C9B55DAC
  624           monga		412390227937157C990177E5846A74DB6538F5BF
  625           mooch		A103263A1923373E122746A06DEA9281DA034410
  626           moray		586377100EB11C2DAD7E1B3EE74D29B82BE16D01
-=-=-=-=-=-=-=-=-=-=-=-=-=-=-=-=-=-=-=-=-=-=-=-=-=-=-=-=-=-=-=-=-=-=-=
Count      Debian UID		 Key Fingerprint(s)
-=-=-=-=-=-=-=-=-=-=-=-=-=-=-=-=-=-=-=-=-=-=-=-=-=-=-=-=-=-=-=-=-=-=-=
  627        morimura		B3AA8A8AC95EEA2877AA140D6F0B4F8857D68A06
  628        mornfall		16A286B6CA6FC9FA6280C9D5BD099FA292DC02A9
  629           morph		CE3353BB501F115039D0DC2402E93057444DD950
  630          morten		9EBFB2626A56C8424CA53E6BE3DF7A577665A8B7
  631            moth		0F0BC06B13DD15FEC98473CF84168E13
  632         mpalmer		AC17A3ECE2C52DC48898CC4B0449EB4D69351387
  633            mpav		68FE94EE70DE82AF1FE42A854C14B05CF93D50FC
  634           mpitt		4D4DC1443D17F705C62319D50DE7276D5E0577F2
  635        mquinson		7B1D105A8FF96B530CDA0C612220BF31E145F334
  636             mrd		A3C693AF5805F46B67D596B2CF153232C24B6010
  637           mryan		C1AD3239202321263F52AFB7131EAF03
  638              ms		F369DA7EB08B0320562F5D6BCE04080E9456ADE2
  639         msameer		9F73032EEAC9F7AD951F280ECB668E29A3FD0DF7
  640             msp		51B335E71D4C13261A37E86DA02CDA9F3D08B612
  641          mstone		9593B59FDFCFE9EF220ACDF5A02394B4
  642              mt		467348C85F3A5A9B2B0D169EBF1E9D1F76D52AC4
  643           murat		0D70D69D9D5B00E4E74E674300959FA39C478D49
  644             mvo		EA71B29645974D8B343E821E962483E15662C734
  645            myon		D224C8B07E63A6946DA32E07C5AF774A58510B5A
  646           nacho		B2CE09EA57BD459180DB731299B38CF8E103FC4D
  647          naoliv		8C215F25828DA7C07F462399010C2EA6D9309644
  648             nas		9B3B987BF40E932006190A17A366302EB1DE86CE
  649         nathans		71DFD2B345C267FF2B7F06CE9BC7E5DC74886B63
  650        nboullis		C382DF92991C50061204E0C4C26C97906D4FC66F
-=-=-=-=-=-=-=-=-=-=-=-=-=-=-=-=-=-=-=-=-=-=-=-=-=-=-=-=-=-=-=-=-=-=-=
Count      Debian UID		 Key Fingerprint(s)
-=-=-=-=-=-=-=-=-=-=-=-=-=-=-=-=-=-=-=-=-=-=-=-=-=-=-=-=-=-=-=-=-=-=-=
  651          nduboc		C0D3F2F00CAC142A46239110100952B5F801A743
  652            neal		11C294DF1D6C9698FEFE231D3BF609C68BAFCDBD
  653           neale		476711062E6CD8562ABDD7FCC1D284BA
                     		A862F10513EF7FAF4F0878B49168856B48BFF157
  654            negm		CFB557734D191507C4B0A38A27FEA5D163E8BE82
  655            neil		9A8DC9566B8148801557A82BEA3FAC90FAEEB4A9
  656           neilm		48FFDD79CB6F62826317D1CCF7B2C1C1B345BDD3
  657          nekral		96F7A8CCA87F0EB8349701B25A0A399AEA7CF5AD
  658        netzwurm		C6AEBDCC834C811871A3634176112FBCFCB1DD23
  659           nevyn		A88490ECD9CB3F81307F3651BC30D4F8F0FCF53B
  660      nickrusnov		C4616C2533DABA992A1F0F3C54D4094CF1219B84
  661            nidd		807AE5A3581700CAC16EACCEE227F0C39469A7A7
  662           nijel		C7DB6D75EEA1FE1BA255EF80DC3552E836E75604
  663          niklas		C39E1CD0E797BE4B025754E28306388D23305BB2
                     		C8E92887FFCB44699F5D3A79AD22CB4C
  664            nils		265F4B310BB22BF0EDC52E3BAA0019FAC66582CE
  665            nion		FF46E5655CC1E2E53F69C7391D87E54973647CFF
  666         njordan		807BA7C50D7D81C0C21F1D36775AC806095918D0
  667           noahm		D896D80AC0307F05701ED53562B54B8C11404EC3
  668           nobse		4A6B2543679D43B02B635439AFF4670B0F7A8D01
  669            noel		B79B0A23EB24809BBAEE5DB6F7F0E70F307D56ED
  670         nomeata		314E3B2D605A6EB35A7D8119F628EB934743206C
  671          nonaka		B800BE0B06D78EEBFF980CCF563D7CEC0B191787
  672         noodles		D8916D8D5CA816AE42548495F1BD4BE45B430367
-=-=-=-=-=-=-=-=-=-=-=-=-=-=-=-=-=-=-=-=-=-=-=-=-=-=-=-=-=-=-=-=-=-=-=
Count      Debian UID		 Key Fingerprint(s)
-=-=-=-=-=-=-=-=-=-=-=-=-=-=-=-=-=-=-=-=-=-=-=-=-=-=-=-=-=-=-=-=-=-=-=
  673         noshiro		756D73EF1C11668A5E495F5C8607903DBDF0AAD0
  674           ntyni		531F3D19816F1AD0E714FEF18B28B3196A072D39
  675          nveber		B0EC24CB0865C1DBFB8F4D51894667CC
                     		CF677AECDC3E11621E32AF6AA217C4C35E2EB5B4
  676             nwp		3A6D1E36E58A91CCC372A68E7592489BCC983928
  677            ocsi		63311CAEC24642A4A15DF75079FCCFD2B0458F4D
  678             ogi		BE163E27804772404A070BA9C1FF10DE90D2295F
  679           ohura		54F6D1B12EE181CD65E3A1D3EEA2EFA277DCE083
  680             oku		CDA0CB5383C684DF760F6BFE52655226451EAB1B
  681          oliver		621B52F62AC136DB8761018F878687ADEF50D1FF
  682           omote		5230575778003789D68AFD38E1060E07B25A5CF1
  683          ondrej		CC918F028CDE911A933FAE52F4E66A7CC20DF273
  684          oohara		61428D079C5B159BC1701F4A40D6F42EF464A695
  685            opal		7090A92B18FE79940C364FE418A1B1CF0FE53DD9
  686           osamu		253A40766A3BCCE2A426DEF5E80FC4C1A8061F32
  687          ossama		58601AE87A66F444749F3CD4EFBF3588
                     		84EDAA0B120399E4106870E65EB75E71F7A394A8
  688            ossk		BE4BBF8E31BB33B4A62D16348A56A7B49A3ABF48
  689          otavio		87B4725066B62494589DB0C52EA8994049A5F855
  690          othmar		1E3E634DE7A56BC7F62E709ECBE41B4C37D406F0
  691            ovek		E37B9BC2CB44DC419FEA4EE103E18C6B83E5110F
  692              p2		950CA1EA6493A7F64A90AA4D28B295C3F46EADBB
  693              pa		363CACE20A4FDE7EB67A0223C53B932B
                     		5285A09FECEB0B22881EA428CF7E8E241ADD95A3
-=-=-=-=-=-=-=-=-=-=-=-=-=-=-=-=-=-=-=-=-=-=-=-=-=-=-=-=-=-=-=-=-=-=-=
Count      Debian UID		 Key Fingerprint(s)
-=-=-=-=-=-=-=-=-=-=-=-=-=-=-=-=-=-=-=-=-=-=-=-=-=-=-=-=-=-=-=-=-=-=-=
  694          pa3aba		DA71724D1264137D568F5E65FC2AAD8C62F1A57F
  695            pabs		248D6AB6867130C0D3BD3749E5273D986BE3C423
  696            paco		CDE122BC836DA44098A853D41BD0E4A5D047CDE1
  697            pape		23F41D24FF2C083DB0932EC2189A3241BC70A6FF
  698        paravoid		B52DA49A01409672AD0A972256DCB977C5E95333
  699            pasc		A86D7CED4E8C17F64457FD1ADFEDBB2225BCD5BF
  700          pascal		710F265D7B816542F23CE054D4B7DDF7B16CCA95
  701             pat		2D33100D34AC349BD31F66ED76EB5477
  702         patrick		F3A06327D7557480440C458685E8FBFCF0B27113
  703            paul		3C77E7F046F8D3653F3873F2BADBEFA9B4D6DE13
  704          paulvt		B73B7544AA9E528E838E88F9241061CA50064181
  705       paulwaite		7F9E800AFC6BA5928914D71FB5F92902090C3B23
  706              pb		237AEF3C48C6A74879DA46235532CF25EF424F7D
  707          pbrown		7093255E38AD07963BEE46C50A4E8F42133AD66A
  708             pdm		491449FF6C26905148BD83299A845657
                     		C9024BD80CFFBE4529EBA711912924FE3DC29B41
  709           pelle		1559FABEB1CE464DAB7F2E7178302C4B8DBFEC2F
  710           peloy		31A2171EFA6B051885809BD86A08D37C0B4D63D8
  711            pere		830C56B4125681C54D71CFD1DB4CCC4B2A30D729
  712          petere		975450AAFA49A20BA9C89D714D3C7CA1554FB4C6
  713          peterk		EE93BB17DE3DB89F44CE4ECB92BC94766394265E
  714          peterm		A9A7F8F69821F415B06677F17FF5C2E67BF2F228
  715          peters		640FED1488F41A5ED57183585E4EEC2113D0461D
  716         petervr		0A8BDC578340AC3B4D2046C7623E49E0876B252F
-=-=-=-=-=-=-=-=-=-=-=-=-=-=-=-=-=-=-=-=-=-=-=-=-=-=-=-=-=-=-=-=-=-=-=
Count      Debian UID		 Key Fingerprint(s)
-=-=-=-=-=-=-=-=-=-=-=-=-=-=-=-=-=-=-=-=-=-=-=-=-=-=-=-=-=-=-=-=-=-=-=
  717        pfaffben		931BDE61FD542845906D5C0B8EB62FAE
  718        pfrauenf		24A1435BD59B185D29E1685B36F492AA
                     		EED1F45F51F88622F8D93AFA58B174319DA5CAD8
  719           philh		8DF8CE5324F3177C24176C6562038A4BDD9B9910
                     		F80E53CF88C23023BA25557B90B5DE66
  720         philipc		8F78131B6ADB80208B8D6F3FE7D0B098E07586B4
  721          phreed		1A6E45BBEA2D439182868FF7AEBE4DFF
                     		4195B944614DF8CECC8BF05B5F7859B198A2AC26
  722         phython		9BA16C3012096ACE92B9445CEF67FBC7628B8E69
  723          piefel		A9D99E3ACD6ECB81A0BC31F1E46C0E35798DD95C
  724            piem		F9A51F3AD5A6CE34F9590116D8F2E6815B97A5D2
  725             pik		9FD010B80BB453D7DCFB6DFB5194830BEC19B378
  726           piman		8EDB4AB28B884DDD7A96735E4C5914ABB0EBC777
  727           piotr		CB085E3F5BC1C2B1B7A0B663074D737EED75F599
  728             pjb		2A404678F51A50F269C792F81DBF071150973B91
  729           pkern		17107DB19A2842FFB6997654ED1A3933B2CFCDD8
  730          plessy		FECC64F84F833C7DB93E213D75897592BAFEC7F2
  731              pm		7A4A1BE8D46C587444869D69FA08BEAEDED45912
  732        pmachard		B906A53F84E049B66CF782C2B3A02D6623706F87
  733          pmhahn		3F898015C8F3F388BF34FA0560F960A19A540E39
  734          pollux		4D1177AEB1A72C80C17F6125B7056B5A8D5F40CB
  735        porridge		FE67DA2D0ACAFC5E3F75D6F63A0D8AA060F41216
  736         pouelle		591C4BE6275D349F9B4AE84ED2CE2ADD
                     		8577CFA7B9848E580D0079B6CFDA9D8206A7376E
-=-=-=-=-=-=-=-=-=-=-=-=-=-=-=-=-=-=-=-=-=-=-=-=-=-=-=-=-=-=-=-=-=-=-=
Count      Debian UID		 Key Fingerprint(s)
-=-=-=-=-=-=-=-=-=-=-=-=-=-=-=-=-=-=-=-=-=-=-=-=-=-=-=-=-=-=-=-=-=-=-=
  737        ppatters		DAED39803772421B1AE40F3945458ADCB1E557A0
  738        preining		14DF2E6C0307BE6DAD76A9C0D2BF4AA309C5B094
  739             prh		587D9A3EC1D563EAD4245DDEC79838D0436337DD
  740         profeta		E2860604AA3AA178E04870C36C979FDE44E22ACD
  741        pronovic		1DCB88A1B90EADFE318CEBE4F0E9F6BA3CD95104
  742        prudhomm		370350DE7A9F024E0F260D07A18FB40BD4BE1450
  743         pseelig		097FCE81987DEF60ABB31DBEDCE6289F
  744             psg		97CE866FF57996EE6E68817035FF799E
  745          psmith		6D275DAAF58DC42B7A6B8F4804E42465F35303F6
                     		A7B1443483740621C6CC568E292ED30D
  746      pstorralba		B9FA855DBE54DE19AD27851F995B17866B3B7323
  747        pvaneynd		7EE290B21E01D6B3A7520B1BD7595D374B729625
                     		A346593A523D11713A5A63354FF4BDCB
  748             pxt		C9030E859AF51B806A5FF169D7E94363431B38BA
  749            pyro		C5B81C4D3C1663B2711E4C28D4D8356166F24521
  750             pzn		9F1F1EBB29A4918D2C5FFB9C39C979637274AA07
  751            qhuo		0581790F75E5994916F0B4F57D887332682FB3DA
  752             qjb		3402EEF894E8977EE450A6A2101564EAD688E0A7
  753           racke		E5520FF2E1383E6928B3A1838E055F139B726B71
  754            radu		F3EFB12B23D9D245B7E4BE6D26431938C9ABFBD3
  755          rafael		6798CF3BCAE8EB29EBCBF4AF4858157D
                     		D78A949392A2AE0C99E74D40937A206B4A5D72FE
  756            rafl		E8DC91A1B7BEE5ABC17247EE742F2A428E635A5E
  757              rb		1EF7CCABF334176417F9AE740E95E735A9FA17FF
-=-=-=-=-=-=-=-=-=-=-=-=-=-=-=-=-=-=-=-=-=-=-=-=-=-=-=-=-=-=-=-=-=-=-=
Count      Debian UID		 Key Fingerprint(s)
-=-=-=-=-=-=-=-=-=-=-=-=-=-=-=-=-=-=-=-=-=-=-=-=-=-=-=-=-=-=-=-=-=-=-=
  758       rcardenes		E81F689C88B018FBC37CD8D01E440865872EB4E5
  759             rcp		32F23DB43D709382E58BD19204D147A595E0A1A1
  760             rcw		701C9AA668C937FBD68D4A826D921640
                     		FFFDBD99A508A2372B26C623F5CE68EB6FF0ABF2
  761         rdonald		C12044371CB52A92D24A63F353EE87606C27DEAB
  762             reg		976448D147ADE1E1E882966C32175C0DC1027A0E
  763           regis		BA1C73EB8400716C5B4659C1544D7BB0B12D595A
  764         reichel		F3C7DAC35EE02E9D93DF2CC3B7635728153FF940
  765           remco		60CA90913ED77788E18D463B4278665D
                     		C7B709D005F838EF9A48CCBDDAD5A719BCC131DE
  766            rene		41FAF20828D47CA519BB7AD9F85990B0248AEB73
  767           ressu		22093C53D0FB041CF7B1F908A9B6F730B83D761C
  768      rfrancoise		55591CCF071DE5AD3976D6F0A20376BEC03C56DF
  769        rganesan		F36184F18D8232E71832679815E002BA5D8C12EA
  770            riku		663BF328E4766A10E047D6A9AB9EEAD8
                     		ECF3ADB2B82A839E1404D80489B3EF32CAEAAF03
  771           risko		B59F508B7FE47E6AF06DC9563B43EB18EE0A35C7
  772             rjs		3F437485B057EFEF2F2FA12BE90112A72B05B73A
                     		E2EFB964D2D7A9C302096AB3B9942587
  773       rkrishnan		CC183BF49D171DA7E11E67D31729F5866A9F3C38
  774             rlb		14DD432FAE39534DB592F9A025C8D3778C7E73A4
  775          rleigh		2BF1D40D92B50C9772C3E2CC55C15C6925BFB848
  776           rmayr		7FE40DB561ECC645B2F1C847ABB48F0DC3C24BDE
  777       rmgolbeck		1B1B2A873F00A7FB40F3526D36CFBA4478916B84
-=-=-=-=-=-=-=-=-=-=-=-=-=-=-=-=-=-=-=-=-=-=-=-=-=-=-=-=-=-=-=-=-=-=-=
Count      Debian UID		 Key Fingerprint(s)
-=-=-=-=-=-=-=-=-=-=-=-=-=-=-=-=-=-=-=-=-=-=-=-=-=-=-=-=-=-=-=-=-=-=-=
  778             rmh		8E57F7A8E4B04244C915321B0B5F62A3AAD40AFF
  779         rmurray		70BC7F9D8C60D2265B7076A23760DBCFFD6645AB
  780           robbe		FDF36B2FCB31C84D3BE46239F20DB587BC185AB3
  781          robert		AEE01F853E638BAACDF13D184E1875709D309C3B
  782         robertc		92228732859D25CC2560B617867BF9A9FBD3EB8E
  783        robertle		2B12EC0512C01AE25D559F3F4BA00E72145B6966
  784         roberto		5F7FF3A809F5ED55335050318EA3B90CB2B97BB1
  785           robin		56E54069029A02AC339DB875CE883F236A6CAEB5
  786        robot101		10D77631735FB57CB8D146D85DCADFE13501E6C5
  787         robster		A8ED2F81B1778FFDA9A69A570B0F2929DF81EE83
  788         rodrigo		7C81E60C442E8FBCD9752F4901998318ADC9BC28
  789         rogerso		F2C341368FB175020C0C01B10E5937AC98FAA0AD
  790        rogoyski		50F7A609845C9EDF8A13F7B237507BD4
  791          roktas		2061020BA49CB3F7810815D09C0E389B3FD25C84
  792          roland		2DE7CCDED58D78BE3CA0A4F14B09CEAF
                     		3A6324104B40422D11111D2C3BBFCF77BD8B050D
  793          romain		9BB16B77643D8E7FF833F44491ACEA99DC0D40AD
  794           roman		2ECC78C976C3F2B3152CAA92712DC9583DC576F7
                     		6E67D05B8F45C1140BC322CBF4B28B54
  795         romosan		EFAADB8C6F15BFAC8D6C556D7F21F0E2
  796             ron		455E8CC9B2AF1C3C5D0C6DDF7994893A
                     		8A306ED1C122B4D524D05137A780421C68021CE4
  797            ross		1A21F5B0D8D0CFE381D4E25A2D09E447D0B433DF
  798           rotty		C38A39C516D7B69F33A3699322C827F735A992E7
-=-=-=-=-=-=-=-=-=-=-=-=-=-=-=-=-=-=-=-=-=-=-=-=-=-=-=-=-=-=-=-=-=-=-=
Count      Debian UID		 Key Fingerprint(s)
-=-=-=-=-=-=-=-=-=-=-=-=-=-=-=-=-=-=-=-=-=-=-=-=-=-=-=-=-=-=-=-=-=-=-=
  799        rousseau		535E3696356979F4932CB7443F4A8A8FE07F1CF9
  800           rover		BF811C95882BE1C26562772D7C811013F5C9708D
  801         rperrot		4AC3910A2AD066F865D78101468D9BDF4ED62BFE
  802             rra		18CFB0C8368A36A886F566A2F985E3400AFC7476
  803         rsahlen		6BE8E83BFB4EB1C2BA074CBDDF1B0378
  804            rudi		0FDF0F1869C2AA24B45F1691A84F709AEDD3D779
  805            rudy		0D128537607E2DF54EFB35A7550F1A003433BD21
  806           ruoso		4FD0E8B755CA8EF008DC9FE11D7365A755815D42
  807             rvb		0662B928E386E2EF0E8AE2EEC26D30347C714C78
  808            rvdm		825A9D9B0301474BD089BCEA14B24766281A810E
  809             rvr		BEB43CCC0725E024F531D1DD43148E6D18EA3457
  810          rweber		E807B151497DFFBF88F8C846CCF0D5379F223683
  811           sacha		7285A1EBA8633EE26BB23D41FDDAB37AD935CEBA
  812           salve		C010AA176FFF42768375E6B81286C912
                     		D3B2A3F5E9EBBDE6A245AA4A212B306C9396865D
  813            samj		BD486B9E4BFAA792CEC5FD7D0EBD65E13C093EEF
  814            samo		DDF8B22B71418194DB94817A2CEBF138D91EE369
  815            samu		38A2B0C62F74F95AED267011CEF15C1FF2597E04
  816            sano		A1A0F2D09C5D7D61DBA11507D0B3F3D0AE31C009
                     		DA00138C49BB60BEA4543DAF2ECE28DD
  817        santiago		38214FB5774A611D31E4B268414B84236FECCDE0
  818         sanvila		95406A8C334C157CC2F6686998C04E91
                     		A176F2AAD9CC40E66374E32377D52EBE3EF23CD6
  819            sasa		45CFB559828180918469CACDDB71AEFCABA0E8B2
                     		C59543F86F19E829535E9661056342D0
-=-=-=-=-=-=-=-=-=-=-=-=-=-=-=-=-=-=-=-=-=-=-=-=-=-=-=-=-=-=-=-=-=-=-=
Count      Debian UID		 Key Fingerprint(s)
-=-=-=-=-=-=-=-=-=-=-=-=-=-=-=-=-=-=-=-=-=-=-=-=-=-=-=-=-=-=-=-=-=-=-=
  820      scheffczyk		E91E9F5E01866C52F431333420258B8FA2E31632
  821        schepler		83C28932B64F1A4EE8A2D7C9342DCB0320021490
  822         schimmi		4E68B38EFDB08F638D97F1671D40E113E62B2C45
  823          schizo		754D5F7CF396B4185FB7ED508030359A
                     		995314085A0EC967941DCE9DE66D2EEBAB963370
  824          schlue		2B653B348212337FB37E585A79D9469400E0D054
                     		AFDD1FFAA6C4C065F645ADAC2EF51678
  825         schmitz		00D2CA0AB530B0761FF549E58EC390A5
                     		818AE6055310CEB65B08D8C48C7DD3254F6A478E
  826      schoenfeld		E372BEC0BF6FD89A111005364CA23313A2D8F6BF
  827         schoepf		FA382D7E408F61E4BF49B48F04BDF5BEB0FA4F49
  828        schultmc		2732356EA676373D7216B964C890730FA3F9E30E
  829           sdier		CF67D67A398CD0B8723431C4C97425FBAE4B5D92
  830             sdt		663BD5D71E1C4AB4CD254A3AA975987B1F9FA7EE
  831          seamus		D85B36267C65069E446022FDA1231035532005DA
  832         seanius		F6FB223148A9B50C68D718ECCA78CB3E6E76D81D
  833             seb		06BD0E92721EA1C6AA4D9F2889980D29C0DDC83F
  834          seb128		E02EFEF54EC6289E6740D61C431A3CEDA2D7D292
  835           segre		B66CD97ACE820575D38E8B7B79B0126693701EEF
  836           seppy		BEC9A3723351A8951C9742A4CBFBFB57EFAA3331
  837           sesse		AD8254B339CE673A1406FD075CA450DE52B7487E
  838              sf		A7AC14ACE268FDCC4F8572C96F17A5AFC1F24EA4
  839          sfllaw		1F9758A650D01FD260AB49952E2CF67B7796A60B
  840          sfrost		A729217BE6787B582E88A1D5AF380C3EA0779228
-=-=-=-=-=-=-=-=-=-=-=-=-=-=-=-=-=-=-=-=-=-=-=-=-=-=-=-=-=-=-=-=-=-=-=
Count      Debian UID		 Key Fingerprint(s)
-=-=-=-=-=-=-=-=-=-=-=-=-=-=-=-=-=-=-=-=-=-=-=-=-=-=-=-=-=-=-=-=-=-=-=
  841             sgk		C4F804163E20CC8081DE1C3F2DE1FC240AAEB1B6
                     		EFCCE3802E2E0205E24BDEE68C8C09F6
  842        sgolovan		2CA20F848E5C29E3E410438221C747D36A461052
  843           sgran		F3438FD50F2EAAF9215502DE49820C1CEA59038E
  844          sgybas		B1023170C07D0022AE6635BC7959E54C
                     		EC5BC83FCD7AFBB5FC16392009DA1280DAEB246B
  845         shachar		DA7DEC9171418446027A2EFC83C07215CDBDBCE2
  846          shadur		524A407CEA32ACCC4C87ED154794FDDBF02317F8
  847           shaka		0FA6DCF3C1B87FC2E637B9D4EE50AA3CDD81604C
  848           shane		A0EDDAC477ECD67454875B5C4F899A4EFFE3035D
  849         shanson		493B256EECAEEC82F3FD4EA93F86A33A
  850         sharkey		608B549B779A8DAAED28FEF1725525032224FABC
  851          sharky		190E48D751174F42ABAC4DD7E2624966A269D927
  852        sharpone		1512813118CD8CBCD30F8A7750ECB05F
                     		F05808D2E7CAA459ED9BEE64A756A9950E08F665
  853           shaul		E34EF9020C3E73F16A6F3319A9E2A289FD3C916B
  854         shlomme		190200025DFC856BF146894C7CC5451EA244C858
  855             sho		11554B19A50F11366E60A4997CF3F5AF29499F61
  856           shugo		EEA16E29E9EEE8297499CD796771A2CC718329DC
  857           siggi		2F21E479A50DD5A2D82545001A53DD5F7971EF0F
  858        siretart		93005DC27E876C37ED7BCA9A98083544945348A4
  859        sjackman		8C8D51FB2E4A38ED4ECDFBA9BC5758175230514A
  860             sjg		AB351FFB126856C0452B302E2A25842153BBA490
  861          sjoerd		36CB6E311236B81B3A38054B81377E4A8768B1D2
-=-=-=-=-=-=-=-=-=-=-=-=-=-=-=-=-=-=-=-=-=-=-=-=-=-=-=-=-=-=-=-=-=-=-=
Count      Debian UID		 Key Fingerprint(s)
-=-=-=-=-=-=-=-=-=-=-=-=-=-=-=-=-=-=-=-=-=-=-=-=-=-=-=-=-=-=-=-=-=-=-=
  862             sjq		F934244D4E26DBDEC9EFBFB721319B944C1A5BE5
  863             sjr		040EB5F784F14FBCCEADADC618A0CC8D5706A4B4
  864             skx		DB1FF3FB1D08FC01ED222243C0CFC6B3CD4C0D9D
  865           slomo		08A90EF89D192196F445097006C05D875BE41F21
  866        smarenka		C51BCC4F505F3F8C1C114EDF54A33827B62849B3
  867            smcv		699818EF768AE1BB6DAEE61159273CCD5530EC76
  868         smimram		52F6FEBCA7B91895F1B6D35A21A7B53B800969EF
  869             smr		5ED7B15389C4ED210E8B7F3DD22D9B3D21DB31C5
  870           smurf		2A111B38C4DB23BFA7C7E19DF3E85400D70AAFF9
  871           sonne		59931AE5007CD2BCA1574AD0FE1F5E2FD1E2B16F
  872             spa		709197B8927DAB9F40255A7BCE84E8E795A4F1D6
  873         spectra		BC01034DF16542306AD22BC5184452FA268A084D
  874         srbaker		3DE1F1CCB2997E68F1F6FD7396E2F6B6FE56BC61
                     		50692BB22DEAC44DDCA004F9DC1E603A
  875         srittau		B4BC4D674EDE9802F9A74C17714E66B4496A1827
  876        srivasta		4966F272D093B493410B924B21BADABBBF24424C
                     		CBD9F4126807E405CC2D27121DF5E86E
  877             srk		269322E7D9255916E0394DD628FC869A289B82B7
  878             ssm		1CB293CA7D0C4C341B8CCDF340E354D9FA26E2EE
  879        stappers		32690A0477DA7273BE3F731339220D6E0C1AFFBB
  880         stefanb		8D8B00E654AA81D74EB3C727479C4DA3
  881          steinm		F883D8A8FB042D6731BD635D8A1D99BF0D7CA701
  882         stephen		5BB32A85BC95A4442BE8D4DD3AAE1CA5EAD9259A
                     		E5A19C5FB339ED171662D0AD29A4DF19
-=-=-=-=-=-=-=-=-=-=-=-=-=-=-=-=-=-=-=-=-=-=-=-=-=-=-=-=-=-=-=-=-=-=-=
Count      Debian UID		 Key Fingerprint(s)
-=-=-=-=-=-=-=-=-=-=-=-=-=-=-=-=-=-=-=-=-=-=-=-=-=-=-=-=-=-=-=-=-=-=-=
  883           steve		445D0A1210E44A0B7352570E1258534C37EC7A69
                     		A837D721E10D78EF1342D2B84FBA1875
  884         stevegr		12EDD7B538F5198A4EC4DDBA76266C50FBB1DB53
  885         stevenk		DB107BC21687426E7AC8BB2309F07408C87FFC2F
  886            stew		EB1F4A7B02539A1A56174C3FF426E1B2BE9BF8DA
  887          stigge		9328CDA73EF53AC1CDF93A8B71A1FF601BF8DE0F
  888             sto		29DF544F1BD9548C8F1586EF6770052BB8C1FA69
  889           stone		2CD6C838BE77795F5EF13E5BDA91EE7BA58E164F
  890           storm		37F6BCA6621D920CE02EE3C873B2C01954434E65
  891      stramiello		A4DF242D492D790424F5AF2FEC2D7F562A2335A5
  892         stratus		190852B94A166EC274D1C03BEDFB700537155778
  893        stroucki		FCC966EA8698F326638B0DBD499D19FA
                     		FD75E3EEAA4E8DC5B79943F3C02E0F9243A83C36
  894          sukria		F39ADE3E4E908608101DF166460D4BD71EE5DD34
  895            sune		5CE8ADFA1FDD9DEA6E21DCE19CCBDA1601FA8B4A
  896         susumuo		8C45D3765B3907517FA5F866DEEC8C09DE415B0E
                     		A8B38402E8C34F0CD2A2EDB3437A1345
  897            sven		3FFE8447F65F659664906B530DCB394414D4060B
  898          sweeks		1B1C0E9EAE2D7479D77D07493A5B55A3332F2703
  899           synrg		395CF3A435D3D24713872D9E5A94F3CA0B2713C8
                     		7FDA094BBA2C0DE01BB131EDC6A9394F
  900            tach		A2B4E9DC8B657DDF9C4B15BD1705390EE66C9BB0
  901         taggart		339FF8F4DEEFC8AAC77E5D1E1E4F6649EA291785
  902           talby		86D8A9996E6A0E611E341F94D4370103F5FE3733
                     		BA4690A9D74C74B1D4CF850C81B0E122
-=-=-=-=-=-=-=-=-=-=-=-=-=-=-=-=-=-=-=-=-=-=-=-=-=-=-=-=-=-=-=-=-=-=-=
Count      Debian UID		 Key Fingerprint(s)
-=-=-=-=-=-=-=-=-=-=-=-=-=-=-=-=-=-=-=-=-=-=-=-=-=-=-=-=-=-=-=-=-=-=-=
  903            tale		08505F45081052B18F5E5022E53B8AA696552D63
                     		AF14756ABFE40E5BC82654A8DCD20A0B
  904            tali		B21B5755968454897577001A8FF11AC5DFE80FB2
  905       tannoiser		41C40274D1B609B3953A496DE9743528313EA3A6
  906             tao		7ACE0FB07A74F9949B36E1D1D14E8526DC47CA16
  907            taru		09F05D7A2BB04E77A73C9F84D523A6E660062884
                     		494674E18DD1EB568DCA2A20149EA925
  908            tats		D01B58C3153169A387EABB2E815E0B3EFA4C5298
  909           tausq		28D175321BC6D1DF4938F6A7D42029BB
                     		9E1E1052F8BBA3510606552750BB29742D59A7D2
  910              tb		A7676E0D4B855C1318128733A8CB01F5BE9F70EA
  911        tbarreno		E2049823813FC7107A591D26A864059C
  912             tbm		F849E2025D1C194DE62BC6C829BE5D2268FD549F
  913             tca		D1820E3CCB05255CCD9855988143F7EEA5E43EA3
  914             teo		D3D1559BEDF09317C29E80E63C81158E72D2E007
  915        terminus		FF13C2E9F9C3DF547C4FEAC1F675AAE2D2AB2220
  916        terpstra		0E8944762B0B3F32B56A4043BCBBC495718A9256
  917          tfheen		5328ACB4D850BE1418782B82412B1E31817A996A
  918             tgg		4B74F71B1C2272344249BF53CF62D79438E68E0E
  919             thb		26C536DCA9AB1F3F640EE0308771348338015E7E
  920           thijs		E0D3FAAA6F50A5DA9D5B293833961588E1C21845
  921           thimo		4A7016C3A760025AE726F42A1DAB3C44DA263218
                     		65B4C14FE646AAA50C7F80368359A01B
  922            thom		1C5DFCF9DDBE01F6ABA9CB36B5679467473F7EFA
-=-=-=-=-=-=-=-=-=-=-=-=-=-=-=-=-=-=-=-=-=-=-=-=-=-=-=-=-=-=-=-=-=-=-=
Count      Debian UID		 Key Fingerprint(s)
-=-=-=-=-=-=-=-=-=-=-=-=-=-=-=-=-=-=-=-=-=-=-=-=-=-=-=-=-=-=-=-=-=-=-=
  923          thomas		215CC0B3709594FE2E5CDABECB0B37E1
                     		4737A0ADE5966D30435629B8004D54B8393D2469
  924             ths		D8B9542C35C0194B1881D2305CDBAAD2D14235A0
  925           tille		6D2EB3CAF6BCD06EEF42247F60305B31C09FD35A
  926             tim		3CDA0ACDA97EC01795A90243951F892C7FED549B
  927            timo		E6A88BA0D28A362930A9899F82D7DF6DFC7F6D0F
  928            timr		1BD5D97CDF5356070609A880583CA816CD98B20A
  929          tincho		D32A5C3A81B85406ED96EF81696436BF575D0A76
  930        tjhukkan		828781B3AF3430F1687EAF6454C24FB53B0BB9A9
                     		9FDCAA257C4F6B07678B75376FB6E039
  931           tjrc1		5BA68CD42C5798246638C06616E2F4F5FC81E159
  932        tmancill		5D5A21A5EEFF1C7CC17AEAC91C80B0FC
                     		F9881A2097179B7679ED6D06A5DC0190F972BE03
  933           toddy		D544C042A1FBD77E71983B23DD45D40015E2AFD6
  934         tolimar		46CDD2920692D5A28F812E48071774E000D8CD16
  935            toma		D75CE26A13D756EA480838C63ED7095569C0FA93
  936        tomasera		D11E8FF816BCDF5F4EAA8EC61BBABE1EB4A0DE89
  937           tomfa		DC7B94537F261BF96B219F90C18773559FE8D504
  938            toni		58A3037655F27B947763BD2D7E8114A075CB1AD2
  939           toots		6C608C2D20FCD4624A97D1089EE43746DE599800
  940             tor		680135A4F89AC1098927E49DF9771443
                     		EE6C46C5E7905F13AC1A9B029EDE0AB70BEE6CFC
  941            tora		8B371FE676B27BA6D59A9BF7E7F446C852936E17
  942         torsten		7AF04E2DDC4AA7BFCBEC2F0326528732
                     		820F6308F2B08DA24D3EC20E750807B5551BE447
-=-=-=-=-=-=-=-=-=-=-=-=-=-=-=-=-=-=-=-=-=-=-=-=-=-=-=-=-=-=-=-=-=-=-=
Count      Debian UID		 Key Fingerprint(s)
-=-=-=-=-=-=-=-=-=-=-=-=-=-=-=-=-=-=-=-=-=-=-=-=-=-=-=-=-=-=-=-=-=-=-=
  943          totoro		A61AF57395426F42DF4CEFE03FF2C23311FB28F6
  944             tpo		549A598550F2C6DB416F287C9EF854EDFC992520
  945          treacy		5970104D190AF907F3193AD9249D114C
                     		E922FC882675BF57E8CF5BDF13EE25B5E4B724A4
  946         treinen		8C9B3B90A68C53FD57568BFFB735A649E0BA04C1
  947           troup		9BF093BC475BABF8B6AEA5F6D7C3F131AB2A91F5
  948           troyh		55AB31F837A4104C9C3D7F2740EAFD0BE19F188E
  949        tschmidt		F5A8E22B74F721C380A352AA73DF8DAB0A327652
  950        ttroxell		31B8BF834898E26D19354C5DE2EDE84371473F66
  951           turbo		B5EF402B69E791432461ED189A55B33CA71C1E00
                     		B792930E0694D622981F0B5BFE33A10B
  952          turgon		B0B1E1FFD6E72F11DE79F598503FA9A7AA4241B2
  953              tv		CD7718EB972FA2656969A68DF270442B
  954       tviehmann		70BE71A76EFFDE9DE087F1EBAE266969A21AD4F9
  955         twerner		A698CD7FC5ED63FE985273C27D8DDD89C4CF8EC3
  956           tytso		52C344D60D02CD9B07031447ED3A39E393674C40
  957           tyuyu		338338F9E1210D1652341B603F4A295BDEA9EC6B
  958            ucko		BC5E69E0AA883F5BD0DCBFE558D0B1B227572C47
  959          uhoreg		96C5012F5F74A5F71FF75291AF29C719124B61FA
  960            ukai		04FB134FB106D372D28CC8A7F43E72663CC88C09
                     		9F27C9B37C630789289CABE47BED658A
  961       ultrotter		4C951CEC98B44B68A286FF458489B14D8807529B
  962           unera		1B23D4F88EC0D9020555E438AB8C00CFF8E26537
  963             uwe		0F3C34D1E4A38FC6435C01BA5DD5685778D621B4
-=-=-=-=-=-=-=-=-=-=-=-=-=-=-=-=-=-=-=-=-=-=-=-=-=-=-=-=-=-=-=-=-=-=-=
Count      Debian UID		 Key Fingerprint(s)
-=-=-=-=-=-=-=-=-=-=-=-=-=-=-=-=-=-=-=-=-=-=-=-=-=-=-=-=-=-=-=-=-=-=-=
  964         vanicat		7AA19755336C6D0B8757E393B0E198D79057B5D3
  965         varenet		E67C0D43A75E12A5BB1CFA2F1E32C3DAB7D2F063
  966           varun		2B98FD5F51A353E7A92198553C415250CC453197
  967        vdanjean		FC9508A6854DDB484B9A8A940BF778679D025E87
  968            vela		48B484D197DD75FB5727B665A9B62CEAC42B63CA
  969         venthur		5CF119670EE23A8E823762219A3EBA3FF61F73F8
  970           viiru		BE86399AF0B45EB2AE7FEBFB43DFE22488DC167A
  971         villate		2B3D367BE9F0FC09A85A31E5508FD363BC936839
  972           vince		4100B65052BF970E4F1F9867894C303CEBE31EF5
  973         vincent		3BF7A57BD49068FCA8E40A9AC2D9439A
  974           viral		2128808675F531712AF436E70C0274F06E25E283
  975             vlm		0BA3FF69645D021DE0542DC4E28450F601D3AB93
  976             voc		80AB41647CF580D042C889D18B6CD06010656584
  977          vorlon		DEA27BAA479CCA5876E5DE5628DEAE7F29982E5A
  978          wagner		7DC101727522014F6F0806491B024AA6
  979            waja		935E449D2B0843E4FF6CE510F6EE83B9DF901724
  980           waldi		887C1B4BC121A3137D1FC04D2E4008227F4E0E11
  981          walken		C09BE8D84443D3635AB4BA55575B196D
                     		CC8CE586C50860AAA54BABEB70333081086C8803
  982     warmenhoven		89AFA298E9CCD21216603EC604B7317054AD21B5
  983            warp		92ED94E4B1E63624226D57274453008BE65A7801
  984            wart		705A4C887A366A4E6A12CE5AB8CA331F10726171
  985             was		751244B519D9897AD1AB8E6250FF32CA87CAB60F
  986             wdg		0CA24B9714437CBD3628A341FE87DFAD2C0FCD1A
-=-=-=-=-=-=-=-=-=-=-=-=-=-=-=-=-=-=-=-=-=-=-=-=-=-=-=-=-=-=-=-=-=-=-=
Count      Debian UID		 Key Fingerprint(s)
-=-=-=-=-=-=-=-=-=-=-=-=-=-=-=-=-=-=-=-=-=-=-=-=-=-=-=-=-=-=-=-=-=-=-=
  987          weasel		5B00C96D5D54AEE1206BAF84DE7AAF6E94C09C7F
  988            wehe		ACA7C89DD03B52EA7F72AD9A4E8E6FC013282FF2
  989          werner		F8CB9B2230C25F2B113D2F3DC3DE75AE036BAB8D
  990           white		208B682510093F2ED295E34EEB6CD6C5893FAD07
  991          wijnen		98E5F9F30D3E63B7F3247065152865FB627CCF95
  992            will		FA91956AA3DB251EF0B5AC3E96FF6FE4244ACFB7
  993           willy		38FAA231A84DE7C5724850CC2218C81E8E7C03FF
  994          winnie		63EB6E8B13022EC3A02E9DDFCE09B6E9B913143A
  995             wjl		41352A3B4726ACC590940097F0A98A4C4CD6E3D2
  996          wookey		655426C9FA10C1D1D3D199C221672570174FEE35
  997          wouter		42671013F94A0ABEB4CE9B6D3DFC2C62AF79D29E
  998           xaiki		68177B2B2BF382F8C499CB98CF953E76C24B9018
  999             xam		308E81E7B97963BCA0E6ED889D5BD511B7CDA2DC
 1000          xavier		FF7A33E79EF3EB2426E86868DCF8D65B03F35988
 1001         xerakko		85A006FD9A6C470127C25536353350CA580808C4
 1002           xtifr		EE0559E5AAFACFF002CF03DB2E55226B
 1003        yaegashi		864EEF5DE946DE3814D4D2D46FEA7E2656F06D01
 1004             ygh		071405537C103CFE2FB44F6D28D3E82917E57327
 1005             yoh		3BB6E1240643A6156F0068548D11456375C024C8
 1006        yooseong		A801E1F5D96433F6B20A1EDB0A19648B2AE7444E
 1007           yoush		19A5031044F274AA16761CFDBF7C793AC9132DDB
 1008            yves		59D726A309323A110A85A84FF55CB49663D2C165
 1009            zack		8156FBF93EC1D872722D3632D5CA9B04F2C423BC
 1010            zacs		CC8ADB414B47ABD0C6CEBEFC5FCCFDF44DE6F9CE
-=-=-=-=-=-=-=-=-=-=-=-=-=-=-=-=-=-=-=-=-=-=-=-=-=-=-=-=-=-=-=-=-=-=-=
Count      Debian UID		 Key Fingerprint(s)
-=-=-=-=-=-=-=-=-=-=-=-=-=-=-=-=-=-=-=-=-=-=-=-=-=-=-=-=-=-=-=-=-=-=-=
 1011             zal		5FE0559F37E9B8BB8354B5BFB70C7A33F7E90FF1
 1012             zed		FF758D70578DA47D3ADE6D2F25C3E6E7
 1013        zinoviev		F6A14116E18FB6B8B43EA18324FD5E649BF42B07
 1014           zobel		5DB31301375AA50F07E7302F493EFB8E5D64F870
 1015         zorglub		866D7D6CC6B07DA82660738CAD26ED82A6C805B9
 1016            zoso		D41C9A3FC7CD67574808A01585880AE5BD540EC1
 1017           zufus		0416EDEF91138372D4970EE78745DD787582C21A
 1018       zugschlus		A3C282024F979BAD6ED484D18196A5446BBA3C84
